"The health beverage has already made the leap from health store to cafes – and now it’s on offer in pubs as an alternative to booze
Amy Fleming

Thu 11 Oct 2018 10.00 BST

When I was a child, homebrew meant the beer my grandad produced under his stairs. Come Christmas, my father and uncles would congregate there, holding up cloudy beer mugs to the light and nodding appreciatively.Increasingly, however, home brewers are knocking out kombucha instead – a traditional, non-alcoholic drink made with fermented tea.Take Jonny Wilkinson, one of England’s best-loved rugby stars. Rugby types may be better known as prolific beer drinkers, but Wilkinson has been brewing his own kombucha for four years. He says introducing fermented items into his diet has brought “a lightness, less conflict in my gut and a more alert, flowing nature to everything”. In May, he launched his own brand, No1 Kombucha, in Sainsbury’s with the intention of bringing the naturally fizzy soft drink to the masses.He is not the only one on such a mission. The fast-food chain Leon now stocks Suffolk-brewed kombucha from LA Brewery, while another British brand, Real Kombucha, will soon be rolled out in 320 Fuller’s pubs. In less than a year, Real Kombucha has reached “almost 50 Michelin-starred restaurants, almost 300 top hotels and 55 Laines pubs”, according to its founder, David Begg.The drink’s leap from health stores to the mainstream via hipster cafes has been swift. LA Kombucha’s founder, Louise Avery, was partly responsible for the drink’s graduation in the UK from murky cult endeavour to cafe culture. She began by brewing it at home under the brand Lois &amp; the Living Teas. “About five years ago, I started bringing up these cloudy milk bottles of kombucha to beautiful cafes around Islington and Hackney in London and they would strain it and serve it to customers.” It flew off the shelves, word spread and Yauatcha, a dim sum restaurant in Soho, came knocking.Many of these cafe owners had come to London from abroad – Germany, Australia, Canada – and were already familiar with kombucha. Avery says British proprietors were more sceptical, “because there’d be bits floating in it, like yeast; people were a bit scared and disgusted. I had to explain it’s a live food and it will continue to grow.” In response, she took steps to make her product more palatable to mass-market consumers. “I figured out a way of mildly filtering it and adding a bit of carbonation to suspend the bacteria; I make sure it’s chilled and I give it a short shelf life to keep as much bacteria as I can without it being an explosive product with bits floating in it.”It worked. When LA Kombucha launched in June, Avery sold 2,000 bottles. The next month, sales rose to 10,000; within six months, Leon had signed up and she had to build a second brewery.Promising scientific findings into how our gut affects everything from mental health to autoimmune disease have boosted demand for so-called gut-healthy fermented products such as kefir (a yoghurt drink), kimchi (Korean-style fermented cabbage) and kombucha, which probably originated in China. The brewing process for kombucha is relatively simple. Tea (either green, black or a mix of both), sugar and filtered water are sealed with a slimy-looking cellulose mat called a Scoby (this stands for “symbiotic culture of bacteria and yeast”). Scobys, which you can buy on eBay, are produced naturally by bacteria and contain the necessary micro-organisms to kick off kombucha fermentation. You float this biofilm on your mixture and let it brew for between seven and 30 days, depending on atmospheric conditions and personal taste. The tea itself ferments, while the yeasts turn the sugar into alcohol, which the bacteria converts into acetic acid, making carbon dioxide bubbles in the process. The longer it brews, the less sweet and more vinegary it becomes.Kombucha’s twangy taste can be enhanced by adding fruits and spices, and most commercial offerings do this. LA Brewery’s ginger variety is satisfyingly fiery, like a traditional ginger beer with a dash of lemonade and the complex pungent, pickle taste you get with kombucha. No1’s passionfruit and goji is fruity and refreshing. Like LA Brewery and No1, Real Kombucha also comes in three choices, although none of these have added flavours – the differences come from the types of tea used. But all three producers carefully avoid making specific health claims, instead promoting the sensory experience of their drinks as something to be appreciated by connoisseurs.Why not push the health angle? Because, says, Paul Humphreys, professor of applied microbiology at the University of Huddersfield, “all the data is either anecdotal or from animal studies. There are a couple of rat studies around cholesterol and hypertension that show potential.” The only human clinical case studies published, he says, tend to be one-off events with negative effects such as people getting acidosis – when there’s too much acid in the body – possibly from drinking too much kombucha.Part of kombucha’s appeal is its live-bacteria element, but the jury is out on how beneficial the microbes in the drink are. Humphreys says there aren’t many “classic probiotic bacteria in it at all. Not the lactobacillus or bifidobacteria, which are the dairy probiotics. You get reports of people finding them in kombucha, but nowhere near what you’d find in some yoghurts or kefir.” That’s not to say that kombucha bacteria aren’t doing good – we just don’t know. And being a wild fermented drink, the yeast and bacteria profiles fluctuate.Humphreys brews his own kombucha at home as an alternative to soft drinks and alcohol. A number of brands have sent their products to his lab for analysis but, he says: “I would never make any health claims based on what we’ve found. I wouldn’t even infer them. It’s such a complicated product.” He prefers his kombucha sour and believes the commercial versions leave in more sugar than you would find in the traditional drink. “It’s lost in the mists of time, but these fermentations were originally about making water safe to drink, so they were probably quite acidic.”Being big on yeast, however, the drink does offer B vitamins, which could be beneficial if you’re deficient. It also contains some vitamin C. And there are polyphenols – plant micronutrients that are antioxidant-rich and feed the good bacteria in your gut. These come from the tea itself, but could be more beneficial in kombucha than in a regular cuppa. Whether the microbiological benefits can be proven or not, there is the undeniable advantage that commercial kombuchas often contain less than one third (or less than half with No1) of the sugar of regular soft drinks, and no artificial sweeteners. And if they help heavy drinkers cut down on alcohol consumption, there’s another win. This is precisely what Begg is hoping, as Real Kombucha hits pubs and bars up and down the UK. “We approached it entirely as an alcohol replacement,” he says. “We are in the space of champagne, wine, craft beer.”Rather than compare his products with soft drinks, Begg places them “somewhere between a fruity prosecco or a lighter dry cider”. Sommeliers have been enlisted to proffer food-pairing tips. The young leaves of “first flush” Darjeeling tea, used in his Royal Flush kombucha, produce notes of raspberry, rhubarb, blackcurrant and, he says, “a little bit of white peach, in the flavour profile”. It’s certainly interesting and strong enough to be sipped, occupying your senses as much any alcoholic beverage.Another in the range is called Smokehouse because the black tea from the hills of southern China tastes a little smoky, but the apple and caramel flavours it produces mean people associate it with cider. The only things missing, says Begg, “are the legs or potency of alcohol, but Royal Flush does even have a slightly puckering astringency in the background”.In the US – where sales of kombucha and other fermented drinks were up by 37% in 2017, while the rest of the soft drink market barely grew – it has also become a popular mixer for cocktails. Food website Bon Appetit published recipes for kombucha cocktails that, it said “prove kombucha and booze are made for each other”. Food blog Chowhound offered: “13 kombucha cocktails to jazz up your bartending game.” Not surprisingly, kombucha now sits in the fridges of some of the UK’s top mixologists.Begg’s first encounter with kombucha was a friend’s home brew, and it immediately satisfied the craving for alcohol he had been experiencing. He had largely given up booze, but didn’t want sweet soft drinks or water when he went out socially. Avery agrees: “Alcohol plays on a number of receptors and kombucha has that, too. Umami, sour, sweetness; you have the fizziness and viscosity that sits on your tongue.” Whether pubgoers will order it instead of booze is yet to be seen, but, says Begg: “We’ve done it in restaurants – expanding well across the upper end as a wine replacement. Now, we’re saying the pub is the next bastion.”",food and drink,4
"Research shows greater proportion of 16- to 24-year-olds shunning alcohol entirelyPress Association

Wed 10 Oct 2018 07.54 BST


Last modified on Wed 10 Oct 2018 08.00 BST

A large proportion of young people in England are shunning alcohol completely, a study has suggested.Researchers said abstaining from alcohol was becoming “more mainstream” among people aged 16 to 24 after the analysis showed a rise in the proportion of non-drinkers.The research, published in the journal BMC Public Health, found more than 25% of young people classed themselves as “non-drinkers”.University College London’s researchers said the norms around drinking appeared to be changing.They studied data from the annual health survey for England and found the proportion of 16- to 24-year-olds who do not drink alcohol had increased from 18% in 2005 to 29% in 2015.Meanwhile, the proportion of “lifetime abstainers” rose from 9% to 17%. The study also appeared to show fewer young people were drinking harmful amounts.In 2005, 43% said they drank above the recommended limits, but this proportion had fallen to 28% 10 years later.Binge-drinking rates also dropped from 27% in 2005 to 18% in 2015.But the increased rates of non-drinking were not observed among smokers, ethnic minorities and those with poor mental health, according to the study, which analysed data on almost 10,000 young people.Dr Linda Ng Fat, the lead author of the study, said: “Increases in non-drinking among young people were found across a broad range of groups, including those living in northern or southern regions of England, among the white population, those in full-time education, in employment and across all social classes and healthier groups.“That the increase in non-drinking was found across many different groups suggests that non-drinking may becoming more mainstream among young people, which could be caused by cultural factors.“The increase in young people who choose not to drink alcohol suggests that this behaviour maybe becoming more acceptable, whereas risky behaviours such as binge drinking may be becoming less normalised.”",food and drink,4
"Log in using your social network accountLog in directly with The IndependentTry Independent Minds free for 14 daysHi {{fullName}}The countdown is officially on and there’s a calendar for everyone, whatever your viceCan you remember when an advent calendar was no more than two pieces of card stuck together, with a few tedious Christmas characters waiting for you behind each window? No, us neither, as kids we were lucky enough to get the cheap chocolate variety, but either way, things have certainly moved on and it’s no longer the little ones having all the fun.We’ve rounded up a selection of non-chocolate advent calendars boasting both food and drink (sometimes together) which are guaranteed to score you serious brownie points with the foodie in your life. Below you’ll find sweet, savoury, boozy and more saintly options, ranging from 12 doors, to the full 25. After all, if there’s ever a time to indulge, it’s December, and what better treat than a daily dose of your favourite food or drink.It’s also worth mentioning that historically the most popular advent calendars have sold out fast, so if you’re keen to get your hands on one, don’t leave it too late.Wine not (sorry) treat yourself this Christmas with this cracking advent calendar featuring a selection of Virgin Wines’ most popular vinos from over the past year. You’ll be able to quaff your way through reds, whites, roses and even sparkling styles, including Champagne. There are 24 windows to open, behind which will be a bottle of 187ml-200ml wine – but you won’t find any naff miniatures here. Oh no, these award-wining boutique wines have been produced in a single serve, especially for this calendar.It’s great for the wine buffs as it takes in grapes from across the globe, but is also a great opportunity to discover new styles that you might not be familiar with. To help with that education there’s a daily digital wine tasting experience to unlock each day, with videos and food-matching tutorials all relating directly to the wine in your glass.Buy nowYou’re going to have to clear some room for this whopping calendar that stands at a metre tall. A match made in heaven, it combines two of our great loves – 12 premium packets of pork scratchings and another 12 bottles of Meantime beer with which to wash them down. Porky flavours include ""marvellous maple"", ""perfectly salted"" and ""low &amp; slow BBQ"", the latter of which was awarded a star in the Great Taste Awards 2018.Meanwhile on the drink front you can expect London lager, pale ale and ""yakima red"" – a fruity, citrus-led brew made with British and German malts which give it its deep ruby colour. Although there are 24 doors, each day you’ll be rewarded with either a beer or packet of pork scratchings (not both) but that’s probably for the best come to think about it.Buy nowWhisky aficionados will be delighted with this premium selection of 30ml drams from around the world. You’ll sample 24 different whiskies from as near and far as Ireland and Japan, Scotland to India and just about everywhere in between. Some brands you’ll recognise, but there will undoubtedly be some new discoveries along the way. We loved the stylish wax sealed tops and nostalgic bottle labels – all you need to do is add a roaring fire for maximum winter vibes. If you’re feeling particularly flush, there’s a ""Very Old &amp; Rare"" edition priced at £9,999.95 – but you’d definitely need to be on the nice list for that.Buy nowAs a nation, our love for gin shows no sign of slowing down, so here's a legitimate excuse to have a daily drop. This calendar features a 70cl bottle of gin – The Lakes Gin by the multi award-winning Lakes Distillery – which you’re instructed to open first. From then on, each day will offer up a new tonic so you can play around with your favourite combo in the lead up to Christmas. Tonic brands may repeat but flavours don’t, expect the likes of Fever Tree, Fentiman’s and Double Dutch.Buy nowIf you’re after more gin and less tonic, try this extra special treat instead. Drinks by the Dram have teamed up with That Boutique-y Gin Company to bring you this artisan selection of 30ml serves. Juniper is your only consistent, with no gin repeated across the 24 days. These are not your everyday gins with botanicals such as Christmas tree needles, an entire gingerbread house and even real gold inside.Pre-order nowIf there’s one month where it’s perfectly acceptable to start the day with a glass of fizz, it’s probably December. Celebrating all things sparkling, this calendar has packed in 23 20cl bottles of prosecco, cava and sparkling wine. Brands are generally pretty well known – think Bottega and Frexinet – and most flavours are repeated once. Including both white and rose fizz, Christmas Eve sees the biggest treat of all – a bottle of Lanson Champagne.Buy nowCarluccio’s have curated the crème de la crème of luxurious artisan products from across the country and popped them into one very tempting advent calendar. Behind each of the 24 colourful doors you’ll find a different tasty Italian treat – from pasta to oils, truffles to sauces. Leaving you with a veritable feast to cook up on Christmas Eve – if it lasts that long of course.Available to order from 22 of OctoberWhat’s not to love about this tongue in cheek advent calendar, created by food blogger Annem Hobson from So Wrong It’s Nom. Last year this calendar sold out after the hashtag #CheeseNotChoc went viral with dairy lovers. It’s back and bigger than ever for 2018, containing 24 individually wrapped pieces of cheese across seven different flavours (jarlsberg, applewood, edam, red leicester, wensleydale, cheddar and a limited edition ginger cheese). This will need to be kept refrigerated but the clever book style design allows one half to be torn off after the initial 12 days of Christmas, to maximise fridge space. Cheesus would surely approve.Available to buy from NovemberWe all know someone that thinks of themselves as a hot head – they’ll be the one ordering a vindaloo whilst laughing at everyone else’s korma. Put them to the test this Christmas with The Big Chilli Advent Calendar which contains 25 dried chillies – from the mildly spicy to the blow-your-head-off hot. To ensure you get the most out of each days little fire-starter, the calendar comes with a recipe book, including a vegan option for every recipe to ensure no one is left out. Glass of milk at the ready…Buy nowThe element of surprise is somewhat lacking from this wall hanging calendar, but none the less we appreciated the vast selection of organic herbal teas and the good price makes up for it. Instead of doors to open, each individual tea bag is tucked into a numbered pocket, and behind each one you’ll get a little festive message about each flavour, such as: “The bells ring out for oolong. Spiced with silky cinnamon. To set your body free. With blissful greener tea."" Catchy.Festive flavours include vanilla chai and wild apple &amp; cinnamon, as well as our favourite night time brew which always guarantees a great night sleep (maybe save that one for Christmas Eve) There are 24 doors – presumably you’ll be enjoying something stronger on Christmas Day itself.Buy nowFor a more premium tea offering, Newby have this beautifully designed twenty-four day advent calendar, featuring their award-winning teabags. The navy blue box features a grand house (the five-story frontage of the Newby Teas global headquarters no less), with snow-covered gold windows. The double doors pull out to reveal  a chest of 24 multi-coloured drawers, each containing four individual wrapped teabags within.There’s a different flavour each day, spanning black, green, oolong, herbal and fruit teas. If you’re thinking of gifting this gorgeous calendar, it also comes with a gold ribbon and gift tag. Last year’s advent calendar sold out in the third week of November so best move fast if you’re keen to get your hands on one.Pre-order nowIf there’s one thing we can’t go without in the morning, it’s a shot of coffee. It becomes even more of a necessity when the Christmas parties have started to take their toll. So what better treat to see behind each of the 25 doors than a Nespresso compatible coffee pod. The colourful advent calendar can be personalised with your loved ones name and each pack contains 13 different flavours, so you can expect some repeats.Buy nowThey may be bite-sized, sweet treats but these protein packed balls are a far cry from the cheap chocolate you used to get as a kid. Each individually wrapped protein ball is gluten free and there are two new vegan flavours – the lemon and pistachio gets our vote. Whether you use them to power through your morning workout or save it for the dreaded afternoon slump – you’ll feel smug knowing ingredients are natural and they contain no added sugar. On Christmas Eve you’ll be treated to a special festive flavoured treat, but there are only six flavours in total, so expect some repeats.Buy nowGym-bunnies will go ga-ga for this fitness focused countdown to Christmas. Whilst most of us start to get a bit lax when it comes to the December diet (too many Christmas sandwiches and mince pies to get through), this will keep the more dedicated on the straight and narrow. From flapjacks to balls, cookies to bars, you’ll recognise some of the biggest names in fitness nutrition including Pulsin, Bounce and Lumberjack. You really get your money’s worth with full-size products behind each of the 25 doors.Buy nowThis feels more like the traditional chocolate varieties we were used to as kids, but instead of cocoa, you’ll find crumbly Cornish fudge. The cardboard frontage is decorated in seasonal navy blue, red and green, with simple illustrations of Christmas puds, santas and snow globes. Inside you’ll find fudge individually wrapped (in home-compostable paper, not plastic). Expect three different flavours including rum hot chocolate, gingerbread and mince pie (our favourite). On Christmas Day you’ll be rewarded with an extra-large bar of caramel sea salt fudge. Buy nowThis was a popular choice last year, but the calendar has been updated for 2018 with brand new flavours including salted caramel, candy floss, strawberry cream, gingerbread, mint choc chip and the American favourite; s’mores. Aside from the marshmallows themselves you’ll also get a chocolate spoon on Christmas day, designed to melt into your favourite hot drink. We’d recommend adding on the marshmallow toaster (£3.95) so you can easily melt your daily treat.Pre-order nowRecently gone vegan and worried about how you’ll get through December without a daily treat? Well worry no more because Candy Kittens have got your back. Bizarrely you’ll find 28 windows on this calendar as they felt like you deserved some half days, so you really are getting your monies worth. Behind each of which there's an individual bag of Candy Kittens, containing 2-3 vegan, gluten-free sweets. Flavours repeat but include sour watermelon, blueberry, peach fizz and wild strawberry.Buy nowOpen up the book-like advent calendar and you’ll find a great big Merry Christmas awaits. The cover is designed to look like a whimsical popcorn shop, with falling snow and twinkling Christmas lights. Although Joe &amp; Seph’s are known for their progressive flavours, you’ll only find 12 of the sweet varieties in this pack – no savoury.  Not that we were disappointed by that, we got to try mini bags of everything from toffee apple &amp; cinnamon, raspberry cheesecake and classic caramel amongst others.Buy nowThis has got to be the most stylish offering on the market. Available in pale blue or peach, the draws concertina out to create a beautiful display. Inside each of the 24 drawers is a pack of Wally and Whiz wine gums. Free from alcohol, gluten, lactose and suitable for vegans, the Danish company create their flavours using fresh, natural ingredients. Except the likes of apple and cinnamon and elderflower and cherry.Buy now in blueBuy now in peachLast year Selfridges were blown away by the love for their 12 door advent calendar full of mini mince pies – so this year they’ve gone all out and have crammed in 24 of the festive favourites. We can all think of at least someone that would happily eat mince pies all year round – this one’s for them.  The assortment includes a range of textures and tastes, including almond-topped, citrus-infused and traditional for the purists. Available from 23 OctoberChristmas is undoubtedly a time of excess for many. However not everyone is in a position to indulge. For that reason, we’d like to suggest considering taking part in this campaign by the Trussell Trust if you can. It’s pretty simple, every time you open a door in your own advent calendar and take a treat for yourself, you also donate a much needed item of food to a box destined for a local food bank. To check what stock is most needed in your local area, visit here and click on the links to “Give help”/”Donate food”. They ask that you try and get donations in as early as possible so that foodbanks have enough time to distribute before Christmas.If we could wake up to just one, it would be the Virgin Wines advent calendar. However for a cheaper treat the So Nom it’s Wrong cheese advent calendar would also put a big smile on our face in the run up to Christmas. Merry Cheesemas!Stacey Smith is the founder of food &amp; drink website CrummbsIndyBest product reviews are unbiased, independent advice you can trust. On some occasions, we earn revenue if you click the links and buy the products, but we never allow this to bias our coverage. The reviews are compiled through a mix of expert opinion and real-world testing.",food and drink,4
"Former glamour model and TV star Katie Price has been arrested on suspicion of drink-driving.The Loose Women panellist, 40, was held after police came across a damaged car stopped at the roadside on Shooters Hill Road, Woolwich, at about 02:00 BST.Scotland Yard said a woman inside the vehicle was arrested.Ms Price was taken to a south London police station but has since been released under investigation.",food and drink,4
"England and Wigan Warriors rugby league player Zak Hardaker has pleaded guilty to drink-driving.The 26-year-old full-back was arrested on 25 September in Pontefract, West Yorkshire, and was charged a day later. Leeds Magistrates' Court heard he attempted to avoid police officers by taking his car down a cul-de-sac and running away on foot.Hardaker, of Pontefract, who is nearing the end of a 14-month ban from rugby for cocaine use, joined Wigan in May.",food and drink,4
"Log in using your social network accountLog in directly with The IndependentTry Independent Minds free for 14 daysHi {{fullName}}I don't face judgement or peer pressure – people my age are willing to accept everyone's individuality and right to their own choicesAnyone who knows me wouldn't be surprised when I say that I don't fancy drinking on a night out, and it's not uncommon for me to nominate myself as the designated driver. But, as a 21-year-old who's fresh out of uni, surely this doesn't sounds normal? I've been questioned more times than I can count, and of course I get my fair share of stick for my love of being sober. But I don't care anymore. I'm not afraid to admit it that I just don't like getting drunk that much. I like a night out as much as the next person, but honestly most of my best nights out are when I've been completely sober. I often find that I have a much better time because I actually feel in control of my actions. Not to mention I wake up feeling fresh and hangover free the next day, which is always a bonus.  However, when it was announced today that drinking among young people has fallen greatly I was quite surprised. I find myself putting up with so much hassle due to the fact that I prefer a sober night out. I just thought that there was nobody out there in the same boat as me. But apparently there is – there just must not be as much of an appeal around getting blind drunk as there used to be. This makes sense – not only are sober nights out more enjoyable, I feel a lot more alert the next day. When I was a student this was a huge benefit as I could live the best of both worlds – out on the night, yet still able to work hard in the library the next day.I don't drink because I don't really feel the need to, simple. I have a personality which means I can still have a great time on a night out without alcohol. Since around two years ago, in my second year of university, every time I have a drink it just makes me feel sick, so I find it best to avoid it all together. Luckily I have great friends who'd never let me get left out, but I can see how for others it could lead to social exclusion. It's no surprise to my peers if I order a Diet Coke instead of a cocktail when we're out for drinks – they don't think any less of me because of it. In fact, I think on they're often grateful to have someone sober there just to make sure everyone else is alright. Perhaps this is a generational thing – people my age seem a lot more willing to accept people’s individuality and right to their own choices, and peer pressure of any kind is frowned upon.My mum isn't a big drinker either, so I wonder if this is where it stems from. I think we'd both rather opt for a'mocktail and feel alert and aware when we're out as opposed to unwell and disorientated. Neither my nights out nor my social life never suffer from this – believe it or not you can still have fun and not drink.In fact, since I bid excessive drinking goodbye I've actually felt it benefit me a lot. My second year of university (when I went out much less than the first year, and went sober more) saw my grades dramatically increase. I also found myself eating better and exercising more, which made me feel and look healthier than I had before.  That said, there are always people who think you're strange for not drinking and there's always a worry that people don't secretly want you around because you're always 'the boring one who orders a soft drink.I hope that more coverage of young people like me will normalise our choices and make people recognise that there are different ways to be a fun, sociable person – and they don’t all involve getting blind drunk. 
The Independent has launched its #FinalSay campaign to demand that voters are given a voice on the final Brexit deal.

Sign our petition hereYou can find our Community Guidelines in full here.You can find our Community Guidelines in full here.Enter your email to follow new comments on this article.Are you sure you want to submit this vote?Are you sure you want to mark this comment as inappropriate?Are you sure you want to delete this comment?Anyone can post in open comments. Please continue to respect all commenters and create constructive debates.Want to discuss real-world problems, be involved in the most engaging discussions and hear from the journalists? Try Independent Minds free for 14 days. Independent Minds Comments can be posted by members of our membership scheme, Independent Minds.
          It allows our most engaged readers to debate the big issues, share their own experiences, discuss
          real-world solutions, and more. Our journalists will try to respond by joining the threads when
          they can to create a true meeting of independent minds. The most insightful comments on all subjects
          will be published daily in dedicated articles. You can also choose to be emailed when someone replies
          to your comment.
        
          The existing Open Comments threads will continue to exist for those who do not subscribe to
          Independent Minds. Due to the sheer scale of this comment community, we are not able to give each post
          the same level of attention, but we have preserved this area in the interests of open debate. Please
          continue to respect all commenters and create constructive debates.
        We have noticed that you are using an ad blocker.Did you know you can support free-thinking journalism and enjoy an advertising-free website by joining Independent Minds?There is a range of other membership benefits, from exclusive features to ebooks and events.Click here for more information.Click here to view instructions on how to disable your ad blocker, and help us to keep providing you with free-thinking journalism - for free.
                    Thank you for your support.How to disable your ad blocker for independent.co.ukThank you for supporting independent.co.uk",food and drink,4
"
Thursday 11 October 2018

Aoife Kelly
Twitter
Email

October 11 2018 12:19 PM

Anton Du Beke said he feels 'a bit disappointed' by the kissing drama which unfolded following Strictly Come Dancing this week.
Comedian Seann Walsh and professional dancer Katya Jones caused controversy after photos of them kissing each other were published in The Sun.Walsh has since been dumped by his actress girlfriend Rebecca Humphries while Jones remains in her marriage with Neil Jones, who is a fellow professional dancer.Speaking to Ryan Tubridy for his RTE Radio 1 show on Thursday morning, which was broadcast live from the BBC's Wogan House, Du Beke said he did ""not really"" have sympathy for the pair.""I'll tell you one word, I'm a bit disappointed,"" he said.  ""I feel a bit like that about it really.  I'm just disappointed.""Although he said he did not want to be drawn into it, he said it was important that they ""take responsibility for their actions and do the right by their partners"".""I don't know how they're going to resolve it in their relationships but it's their business and they must do that,"" he said.He said he as reluctant to speak about it because ""It's nothing to do with me and I don't want to seem sanctimonious"" but added, ""I am disappointed on many levels really.  Don't drink. If that's what happens, stop.  What are you doing?  Practice, don't drink.""Du Beke was one half of the first couple voted off the show this year with his partner Susannah Constantine.  Outside of the show he is married to Hannah and they have 19-month old twins, Henrietta and George.""We've come to it later in life and its the most incredible thing,"" he gushed.  ""We're so lucky, blessed.  They're incredibly children.  Hannah is the most incredible wife and mother.  I'm just in awe of her.""Speaking about coming to fatherhood at the age of 50 (he's now 52), he said, ""I was never quite sure if I wanted to have children or not through my life but I knew one thing, if I was to have children it would be with the person I wanted to spend the rest of my life with.""
Online Editors
Darragh McManus The Presidential election campaign is really under way in earnest now, with candidates trawling the radio stations to impart their wit and wisdom. Seán Gallagher's appearances - Today with Sean...Sherna Noah Zoe Ball has been named the first female host of the Radio 2 Breakfast show, describing the position as “both an honour and privilege”.Breda Heffernan A transmitter disguised in a Jacob's biscuit tin so it could be quickly hidden in the event of a raid is one of the many items from the Irish Pirate Radio Archive, which has been donated to DCU.Going out? Staying in? From great gigs to film reviews and listings, entertainment has you covered.

Sign Up

Scott Mitchell has revealed the devastating moment... 
Taylor Swift has broken her silence on political... 
Tickets for Glastonbury Festival 2019 sold out in just over half an hour. 
Tom Hardy has said the film industry is “superhero-movie heavy”... 
Actors Amy Schumer and Emily O'Hara... 
Lady Gaga has said she revisited her... 
Scott Mitchell has revealed the devastating moment... 
Taylor Swift has broken her silence on political... 
Tickets for Glastonbury Festival 2019 sold out in just over half an hour. 
Tom Hardy has said the film industry is “superhero-movie heavy”... 
Actors Amy Schumer and Emily O'Hara... 
Lady Gaga has said she revisited her... 
It's the first of the two-night televised... © Independent.ie Back to top",food and drink,4
"Log in using your social network accountLog in directly with The IndependentTry Independent Minds free for 14 daysHi {{fullName}}Do the health benefits of drinking wine in moderation outweigh the detriments?There have been many recent conflicting reports about the supposed health benefits and detriments of drinking wine.While some claim that drinking wine frequently can be good for you, with a recent report claiming that doing so can supposedly decrease your chances of developing dementia, others are not as convinced by the association between drinking wine on a regular basis and life expectancy.A recent study conducted by doctors at Washington School Medicine stated that people who drink wine every day may increase their risk of an early death by 20 per cent.So, is wine actually good for you, and if so, how much should you be drinking?The current guidelines for drinking alcohol state that people should aim to drink no more than 14 units of alcohol a week.This equates to less than a glass of wine every day, as Tracy Parker, senior dietician at the British Heart Foundation, explains.“Drinking too much alcohol can have a harmful effect on your heart and general health,” she tells The Independent.“Current guidelines recommend we don’t drink more than 14 units a week - this is equivalent to six glasses of wine or six pints a week.”While the guidelines stipulate refraining from drinking more than 14 units of alcohol a week, Parker advises drinking even less in order to keep your health in check.“This is a sober reminder that the alcohol guidelines should act as a limit, not a target, and you should aim to drink well below the threshold to keep your risk of heart disease or other health risks from drinking alcohol low,” she says.Drinking alcohol in excess can have a huge impact on your health, as it could lead to you developing various health issues later on in life.“In the short term drinking can increase the risk of accidents, by making you vulnerable and more likely to take risks,” says Dr John Larsen, director of evidence and impact at Drinkaware.“It can also lead to weight gain, affect the way you look, impact sleep quality and worsen mental health.“In the longer term it can also increase the risk of developing a range of health conditions, including heart and liver disease and seven different types of cancer.”While overindulging on alcohol may lead to a myriad of health issues, drinking wine in moderation as part of a healthy and balanced diet could prove beneficial in the long run. A recent study conducted by researchers at the Warsaw University of Life Sciences in Poland discovered that following an anti-inflammatory diet that includes chocolate and moderate amounts of red wine and beer could lead to a longer lifespan.According to the NHS, it would be advisable for adults to spread the weekly alcohol intake over three days or more, without going over the 14-unit maximum.However, according Fran McElwaine, director of the UK Health Coaches Association, the amount of alcohol that you should be drinking depends entirely on the individual.“Different people can process alcohol more, or less, efficiently depending on their genetics, age, state, of overall health and level of fitness,” she says.“If we are young and fit, the body can process a glass of wine relatively easily but as we get older, or are battling with stress or illness, our ability to efficiently manage alcohol decreases significantly.”McElwaine suggests working with a health coach in order to figure out exactly how much alcohol your body is able to process efficiently.You can find our Community Guidelines in full here.You can find our Community Guidelines in full here.Enter your email to follow new comments on this article.Are you sure you want to submit this vote?Are you sure you want to mark this comment as inappropriate?Are you sure you want to delete this comment?Anyone can post in open comments. Please continue to respect all commenters and create constructive debates.Want to discuss real-world problems, be involved in the most engaging discussions and hear from the journalists? Try Independent Minds free for 14 days. Independent Minds Comments can be posted by members of our membership scheme, Independent Minds.
          It allows our most engaged readers to debate the big issues, share their own experiences, discuss
          real-world solutions, and more. Our journalists will try to respond by joining the threads when
          they can to create a true meeting of independent minds. The most insightful comments on all subjects
          will be published daily in dedicated articles. You can also choose to be emailed when someone replies
          to your comment.
        
          The existing Open Comments threads will continue to exist for those who do not subscribe to
          Independent Minds. Due to the sheer scale of this comment community, we are not able to give each post
          the same level of attention, but we have preserved this area in the interests of open debate. Please
          continue to respect all commenters and create constructive debates.
        ",food and drink,4
