" Specialists had been building computer programs since 2014 to review résumés in an effort to automate the search processReuters

Thu 11 Oct 2018 00.42 BST

Amazon’s machine-learning specialists uncovered a big problem: their new recruiting engine did not like women.The team had been building computer programs since 2014 to review job applicants’ résumés, with the aim of mechanizing the search for top talent, five people familiar with the effort told Reuters.Automation has been key to Amazon’s e-commerce dominance, be it inside warehouses or driving pricing decisions. The company’s experimental hiring tool used artificial intelligence to give job candidates scores ranging from one to five stars – much as shoppers rate products on Amazon, some of the people said.“Everyone wanted this holy grail,” one of the people said. “They literally wanted it to be an engine where I’m going to give you 100 résumés, it will spit out the top five, and we’ll hire those.”But by 2015, the company realized its new system was not rating candidates for software developer jobs and other technical posts in a gender-neutral way.That is because Amazon’s computer models were trained to vet applicants by observing patterns in résumés submitted to the company over a 10-year period. Most came from men, a reflection of male dominance across the tech industry.In effect, Amazon’s system taught itself that male candidates were preferable. It penalized résumés that included the word “women’s”, as in “women’s chess club captain”. And it downgraded graduates of two all-women’s colleges, according to people familiar with the matter. Amazon edited the programs to make them neutral to these particular terms. But that was no guarantee that the machines would not devise other ways of sorting candidates that could prove discriminatory, the people said.The Seattle company ultimately disbanded the team by the start of last year because executives lost hope for the project, according to the people, who spoke on condition of anonymity. Amazon’s recruiters looked at the recommendations generated by the tool when searching for new hires, but never relied solely on those rankings, they said.Amazon declined to comment on the recruiting engine or its challenges, but the company says it is committed to workplace diversity and equality.The company’s experiment, which Reuters is first to report, offers a case study in the limitations of machine learning. It also serves as a lesson to the growing list of large companies including Hilton Worldwide Holdings and Goldman Sachs that are looking to automate portions of the hiring process.Some 55% of US human resources managers said artificial intelligence, or AI, would be a regular part of their work within the next five years, according to a 2017 survey by talent software firm CareerBuilder.Amazon’s experiment began at a pivotal moment for the world’s largest online retailer. Machine learning was gaining traction in the technology world, thanks to a surge in low-cost computing power. And Amazon’s Human Resources department was about to embark on a hiring spree; since June 2015, the company’s global headcount has more than tripled to 575,700 workers, regulatory filings show.So it set up a team in Amazon’s Edinburgh engineering hub that grew to around a dozen people. Their goal was to develop AI that could rapidly crawl the web and spot candidates worth recruiting, the people familiar with the matter said.The group created 500 computer models focused on specific job functions and locations. They taught each to recognize some 50,000 terms that were found on past candidates’ résumés. The algorithms learned to assign little significance to skills that were common across IT applicants, such as the ability to write various computer codes, the people said.Instead, the technology favored candidates who described themselves using verbs more commonly found on male engineers’ resumes, such as “executed” and “captured”, one person said.Gender bias was not the only issue. Problems with the data that underpinned the models’ judgments meant that unqualified candidates were often recommended for all manner of jobs, the people said. With the technology returning results almost at random, Amazon shut down the project, they said.Other companies are forging ahead, underscoring the eagerness of employers to harness AI for hiring.Kevin Parker, chief executive of HireVue, a startup near Salt Lake City, said automation is helping companies look beyond the same recruiting networks upon which they have long relied. His firm analyzes candidates’ speech and facial expressions in video interviews to reduce reliance on résumés.“You weren’t going back to the same old places; you weren’t going back to just Ivy League schools,” Parker said. His company’s customers include Unilever PLC and Hilton.Goldman Sachs has created its own résumé analysis tool that tries to match candidates with the division where they would be the “best fit”, the company said.LinkedIn, the world’s largest professional network, has gone further. It offers employers algorithmic rankings of candidates based on their fit for job postings on its site.Still, John Jersin, vice-president of LinkedIn Talent Solutions, said the service is not a replacement for traditional recruiters.“I certainly would not trust any AI system today to make a hiring decision on its own,” he said. “The technology is just not ready yet.”Some activists say they are concerned about transparency in AI. The American Civil Liberties Union is currently challenging a law that allows criminal prosecution of researchers and journalists who test hiring websites’ algorithms for discrimination.“We are increasingly focusing on algorithmic fairness as an issue,” said Rachel Goodman, a staff attorney with the Racial Justice Program at the ACLU. Still, Goodman and other critics of AI acknowledged it could be exceedingly difficult to sue an employer over automated hiring; job candidates might never know it was being used.As for Amazon, the company managed to salvage some of what it learned from its failed AI experiment. It now uses a “much watered-down version” of the recruiting engine to help with some rudimentary chores, including culling duplicate candidate profiles from databases, one of the people familiar with the project said.Another said a new team in Edinburgh has been formed to give automated employment screening another try, this time with a focus on diversity.",technology,9
"An algorithm that was being tested as a recruitment tool by online giant Amazon was sexist and had to be scrapped, according to a Reuters report.The artificial intelligence system was trained on data submitted by applicants over a 10-year period, much of which came from men, it claimed.Reuters was told by members of the team working on it that the system effectively taught itself that male candidates were preferable.Amazon has not responded to the claims.Reuters spoke to five members of the team who developed the machine learning tool in 2014, none of whom wanted to be publicly named. They told Reuters that the system was intended to review job applications and give candidates a score ranging from one to five stars.""They literally wanted it to be an engine where I'm going to give you 100 resumes, it will spit out the top five, and we'll hire those,"" said one of the engineers who spoke to Reuters.By 2015, it was clear that the system was not rating candidates in a gender-neutral way because it was built on data accumulated from CVs submitted to the firm mostly from males, Reuters claimed.The system started to penalise CVs which included the word ""women"". The program was edited to make it neutral to the term but it became clear that the system could not be relied upon, Reuters was told.The project was abandoned, although Reuters said that it was used for a period by recruiters who looked at the recommendations generated by the toll but never relied solely on it.According to Amazon, its current global workforce is split 60:40 in favour of males.About 55% of US human resources managers said that AI would play a role in recruitment within the next five years, according to a survey by software firm CareerBuilder.It is not the first time doubts have been raised about how reliable algorithms trained on potentially biased data will be.An experiment at the Massachusetts Institute of Technology, which trained an AI on images and videos of murder and death, found it interpreted neutral inkblots in a negative way.And in May last year, a report claimed that an AI-generated computer program used by a US court was biased against black people, flagging them as twice as likely to reoffend as white people.Predictive policing algorithms were spotted to be similarly biased, because the crime data they were trained on showed more arrests or police stops for black people. ",technology,9
"Son of media tycoon Rupert Murdoch is the lead candidate to replace the embattled Tesla founder
Patrick Greenfield and agencies

Wed 10 Oct 2018 20.22 BST


Last modified on Thu 11 Oct 2018 11.02 BST

James Murdoch is the favourite to take over the chairmanship of volatile electric-carmaker Tesla from its embattled founder, Elon Musk, according to reports.The son of newspaper, satellite TV and movie studio tycoon Rupert Murdoch is now the lead candidate for the Tesla chair, the Financial Times reported on Wednesday, citing two people briefed on the discussions.Musk agreed he would step down as chairman by mid-November but remain as chief executive officer, after he and Tesla reached a settlement with US financial watchdog the Securities and Exchange Commission (SEC) last month in which they agreed to pay $20m each to financial regulators. The billionaire had claimed in early August to have secured funding to take Tesla private, sending markets scrambling.There then followed much concern about his health and stability after he talked about sleeping little because of the high stress of the job, and he smoked a joint during a podcast interview amid swirling speculation about drug use.James Murdoch is currently chief executive of 21st Century Fox, but will leave the role when the entertainment giant completes the sale of the majority of its assets to Disney, and will be succeeded by his brother Lachlan. He joined Tesla’s board last year as a non-executive director and has reportedly said he wants the job of chair.The Tesla board is understood to have not yet made a final decision about Musk’s successor and may still appoint an external candidate.On Tuesday, Murdoch resigned from the board of Sky plc, the owner of Sky News, as part of Comcast’s takeover of the company, beating 21st Century Fox in an intense bidding war. He is also contemplating starting a technology investment fund.“The Tesla chairman job is perfect for James,” a person briefed on the discussions told the FT. “He’s working on this fund and will be sitting next to Elon … he’s going to get access to so much deal flow.”However, Musk denied the Financial Times story in a response to a tweet about the report, writing: “This is incorrect.”This is incorrectSilicon Valley-based Musk created the electric carmaker and aerospace company SpaceX, which has been launching space rockets in a bid to win commercial space transportation business in future – and realising Musk’s talk of colonising Mars.Tesla is wildly successful by many measures, but has been under pressure over profits, keeping up with demand and conditions for workers.Its shares have struggled amid the recent controversy, trading around $259.52 at the time of writing, around a 27% fall since Musk tweeted his intention to take the firm private at $420 a share.The SEC filed a suit accusing Musk of fraud in relation to the tweets, alleging his go-private plan, which he abandoned weeks later, had no basis in fact. The tech billionaire accepted a $20m fine and agreed to step down as chairman as part of the settlement. Tesla and 21st Century Fox did not immediately respond to a request for comment.Shares of Tesla on Wednesday afternoon pared losses to trade down 1.6% at $258.50.",technology,9
"Martin is interested in using a decentralised web alternative to Google Docs, but worries about the energy use associated with blockchain
Jack Schofield

Thu 11 Oct 2018 11.41 BST


Last modified on Thu 11 Oct 2018 15.01 BST

I recently read a piece about decentralisation. As I am looking for an alternative to Google, Microsoft and the other big names, Graphite stood out. However, it uses blockchain, and one thing that I do not find encouraging is the amount of energy it consumes.So my question is: from an energy point of view, is there much difference between cloud and blockchain?The electricity I use at home is from renewable sources. MartinThe main aim of the decentralised web (DWeb) is to remove the power of centralised “gatekeepers” such as Facebook and Google, who hoover up the world’s data and monetise it by selling advertising. It reminds me of the original concept of the web, where every computer would be both a client and a server, sharing information on a more or less equal basis.Of course, that is not how real life works. What actually happens is that you get a power law distribution with a few large entities and a long tail of small ones.As Clay Shirky wrote in 2003: “In systems where many people are free to choose between many options, a small subset of the whole will get a disproportionate amount of traffic (or attention, or income), even if no members of the system actively work towards such an outcome. This has nothing to do with moral weakness, selling out, or any other psychological explanation. The very act of choosing, spread widely enough and freely enough, creates a power law distribution.”The web still has plenty of variety, but almost everyone is familiar with one giant search engine, one giant retailer, one giant auction site, one giant social network, one giant encyclopaedia, and so on. Indeed, there is only one giant internet where there used to be dozens of competing networks using many different protocols.Obviously, it would be better if we all agreed these things in advance, based on open standards. However, people vote with their wallets, and competition results in de facto standards instead of de jure ones. Examples include Microsoft Windows, Google Search and Facebook. Each triumphed in a competitive marketplace.I am not saying this is the ideal solution, just that, in most cases, it’s inevitable.One of the problems with returning to a decentralised web is that the internet is no longer decentralised. It has been redesigned around giant server farms, high-speed pipes and content delivery networks. It looks increasingly like a broadband television network because that is what it actually does most of the time.Today’s web is being optimised for the delivery of Netflix movies, BBC programmes on iPlayer, Spotify music, live streams of every major sporting event, and so on. You can upload your own live streams but communications are asynchronous: your downloads are much faster, and much more reliable, than your uploads. It’s really easy to watch 1TB of movies but an exercise in frustration trying to upload a 1TB hard-drive backup.If you really want to save energy and internet resources, stop streaming stuff. Broadcast TV and radio can reach tens of millions of people, and adding another million adds relatively little in the way of extra power consumption. There is school of thought that it is better for the environment to use CDs or DVDs for albums or films you go back to again and again, or you could at least use digital files stored on your PC or smartphone.And rather than using Graphite to replace Google Docs or Microsoft Office, just use a word processor offline. If you run Windows, you already have a text editor (Notepad) and a simple word processor (WordPad), and there are plenty of free alternatives. That will reduce global energy use and increase your privacy.It’s really simple. If you don’t want Google to read your documents, don’t write your documents on Google’s computers. And if you don’t want cloud servers using energy, don’t use the cloud.Companies such as Amazon AWS, Microsoft and Google are covering the world with server farms to make information more easily available. That’s harder to do with real distributed systems because the thousands or millions of separate computers may be turned off or otherwise unavailable when you need the data they are storing. Worse, unless it’s replicated, you could lose data.It’s true that server farms consume an ever-growing amount of electricity, much of it used for cooling purposes. However, the cost is a powerful incentive for operators to use cheaper renewables, such as solar panels, and to reduce their power consumption in other ways. For example, Facebook has built a data centre in the north of Sweden where the air is freezing cold, while Microsoft is experimenting with underwater data centres that are easier to cool.Microsoft is also sponsoring tree planting in Ireland as part of its commitment to becoming carbon neutral.A properly decentralised web, based on tens of millions of small servers, would not have the same incentives to cut energy use, nor the same economies of scale. And in reality, I expect DWeb will use the same giant data centres as everybody else.Bitcoin is having a terrible impact on the world’s energy consumption, and may use almost as much as Austria (8.2GW) by the end of this year. This is despite bitcoin mining making the usual transition from widely distributed – anyone with a PC could do it – to specialised equipment in data centres. However, it’s irrelevant to Graphite and, I suspect, to the rest of DWeb.Thankfully, GraphiteDocs does not use the Bitcoin blockchain to store anything except your identity. This is the result of Graphite’s decision to use the Blockstack application development system. Apart from that, Graphite uses its own virtual blockchain.To get started, you use the Blockstack browser to register your name on the Bitcoin blockchain. Once you’ve done that, you can use Graphite and other Blockstack apps. There are 34 in the app store. (Gaia is Blockstack’s decentralised storage system.)Graphite itself has two obvious advantages. First, all your files are encrypted. Second, you can store them wherever you like. By default, Graphite uses Microsoft’s Azure cloud, but you can connect to Dropbox, Google Drive or some other service.Your files are encrypted so the storage provider can’t read them, and they can’t be censored.The distributed web is being promoted by people I admire, including web inventor Sir Tim Berners-Lee, the Internet Archive’s Brewster Kahle and Mozilla’s Mitchell Baker. It also has a valid reason to exist: people really should own and control their own data, not just labour as unpaid serfs for surveillance capitalism. However, most people follow the line of least resistance, so the web is not going to change overnight.Services like Graphite are worth considering if you need both encryption and the ability to share secure files online, though there are other ways to do this, such as Boxcryptor and Whisply. DWeb apps will need to become easier to use and mobile before they can reach a mass market.But I can’t see any savings in energy consumption compared with just using a cloud service.Have you got a question? Email it to Ask.Jack@theguardian.com",technology,9
"Both firms deny report they found chips giving backdoor access to computers and data
Samuel Gibbs

Fri 5 Oct 2018 04.41 BST


First published on Thu 4 Oct 2018 14.10 BST

A Chinese military unit has been inserting tiny microchips into computer servers used by companies including Apple and Amazon that give China unprecedented backdoor access to computers and data, according to a new Bloomberg report.The tiny chips, as small as the tip of a sharpened pencil and designed to be undetectable without specialist equipment, were implanted on to the motherboards of servers on the production line in China, the report in Bloomberg Businessweek said.Technology shares in Hong Kong fell sharply on Friday led by Lenovo, which lost 23% in morning trade. The Hong Kong-listed shares of Chinese telecommunications equipment maker ZTE Corp lost more than 14%. The chips were reportedly developed by a specialised computer hardware attack unit in the People’s Liberation Army, and gave hackers unfettered access to anything the server did, allowing them to potentially manipulate the server to steal data, contact other servers and alter operations.“Having a well-done, nation-state-level hardware implant surface would be like witnessing a unicorn jumping over a rainbow,” Joe Grand, a hardware hacker and the founder of Grand Idea Studio, told Bloomberg.The allegedly compromised hardware, sold by Super Micro Computer, which is based in San Jose, California and described as “the Microsoft of the hardware world”, found its way into the data centres and operations of 30 companies, including Apple and Amazon as well as banks, hedge funds and government contractors, according to the report.The attack was reportedly discovered in 2015 by the US intelligence services, as well as by Apple and Amazon as the companies purchased servers made by Super Micro Computer. The report claims Amazon became aware of the attack during movesby its subsidiary Amazon Web Services (AWS) to purchase streaming video compression firm Elemental Technologies in 2015. Apple had reportedly bought around 7,000 Super Micro servers when its security teams discovered the chips.The report cited 17 unnamed intelligence and company sources as saying that Chinese spies had placed computer chips inside equipment used by around 30 companies, as well as multiple US government agencies, which would give Beijing secret access to internal networks.Amazon, Apple and Super Micro have all denied Bloomberg’s report. Amazon said: “It’s untrue that AWSknew about a supply chain compromise, an issue with malicious chips, or hardware modifications when acquiring Elemental.”AWS said: “As we shared with Bloomberg BusinessWeek multiple times over the last couple months, at no time, past or present, have we ever found any issues relating to modified hardware or malicious chips in SuperMicro motherboards in any Elemental or Amazon systems.‎”Apple said: “On this we can be very clear: Apple has never found malicious chips, ‘hardware manipulations’ or vulnerabilities purposely planted in any server.”“We remain unaware of any such investigation,” said Super Micro.Super Micro Computer engineers its equipment in San Jose, but, like the majority of electronics firms, it outsources manufacturing, including to contractors in China.The Chinese government has also denied the report. A spokesperson said: “China is a resolute defender of cybersecurity. We hope parties make less gratuitous accusations and suspicions but conduct more constructive talk and collaboration so that we can work together in building a peaceful, safe, open, cooperative and orderly cyberspace.”There have been increased concerns about foreign intelligence agencies infiltrating US and other companies via so-called “supply chain attacks”, particularly from China where multiple global tech firms outsource their manufacturing.Associated Press contributed to this report",technology,9
"Android-maker bets on dual-camera selfies and AI features such as Super Res Zoom and Top Shot to battle Samsung and Apple
Samuel Gibbs

Tue 9 Oct 2018 17.00 BST


Last modified on Wed 10 Oct 2018 09.54 BST

Google’s new Pixel 3 smartphones attempt to push the computational photography envelope, challenging Apple’s new iPhone XS and Samsung’s Galaxy S9.As with last year’s Pixel 2, Google is further flexing its artificial-intelligence muscle, with more and more local AI-driven features across every facet of the device, from the camera and smart Gmail replies to battery life and device control.“We’ve been very thoughtful about how we design phones, thinking about their purpose for consumers,” said Mario Queiroz, head of Google’s Pixel. “We want to make sure we have a the right balance between being really helpful but not intrusive, being delightful but not controlling, simple but not cumbersome.”The Pixel devices look familiar on the outside, with a two-tone back that is now all glass with two finishes – polished at the top and etched at the bottom. Both devices come with increased screen sizes and IP68 water resistance.The Pixel 3 adopts the design of the Pixel 2 XL but shrunk from 6in to 5.5in diagonally, a gain of 0.5in in screen size over last year’s Pixel 2. The Pixel 3 XL stretches the display to 6.3in diagonally, adopting the on-trend screen notch and resembling the OnePlus 6 in the process.Both devices have similar body dimensions to their predecessors, along with front-facing stereo speakers, a fingerprint scanner on the back and now 10W wireless charging.They both share the same top-of-the-line Qualcomm Snapdragon 845 processor, a choice of 64GB or 128GB of storage, 4GB of memory, new Titan M security chip and cameras, making screen size the big differentiator.The Pixel 3 smartphones also now have a dual selfie cameras on the front consisting of one standard and one wide-angle, which are used to enable wide-angle group selfies and zooming. Google said its custom Pixel Visual Core AI chip can correct the distortion caused by a wide-angle lens on the fly, while its Photobooth mode can be left to continue capturing photos when faces are detected and people smile.The rear camera on the back remains a solo 12-megapixel system, but gains several AI-powered features on top of the existing HDR+ system that has proven effective at capturing images with excellent detail, contrast and dynamic range in challenging lighting conditions.The first is a feature called Top Shot, which shoots lots of HDR+ shots before and after you hit the shutter button. The system then suggests a superior shot if your intended photo isn’t the best of the batch using on-device machine learning to identify things such as hair covering the face or unintentional blinks.The rear camera also has a new system Google calls Super Res Zoom, which compensates for the lack of an optical zoom by using a computational photography technique typically used in satellite imagery. Harnessing the natural shake of the human hand when a photo is captured, or simulated oscillation if tripod-mounted, the camera shoots lots of images at subtly different angles blending them together to add detail to the image as you zoom in. The effect is a vastly improved digital zoom that Google says rivals the best optical zoom on any smartphone.Google is also introducing a computational photography technique called Night Sight, which can capture natural-looking photos in the dark without a flash and will be rolling out as part of a software update later this year.The Pixel 3 is also the first smartphone to build in Lens directly into the main camera view, and not as a separate mode; Google’s machine vision-powered search system recognises objects, text, business cards, QR codes and other things. Google’s AR Playground also gains more interactive stickers and contextual suggestions that react live to things such as facial expressions in the camera app.The Pixel 3 will also be the first to introduce Gmail smart compose features to the mobile app and a new Shush Mode that enables Do No Disturb when the phone is placed screen-side down, alongside Google’s existing digital wellness controls to prevent smartphone addiction and machine-learning systems for brightness control and battery life preservation.With the Pixel 3, Google is also launching a wireless-charging accessory called the Pixel Stand that turns the smartphone into a Google Assistant smart display, capable of pulling duty as a Google Home with a screen.Features include a sunrise mode that will light the room with warming colours immediately prior to a wake up alarm, a digital photo-frame mode and compatibility with Google’s Nest cameras.Both phones will be available in three colours: black,white and pink. The Pixel 3 will cost £739 with 64GB and £839 with 128GB of storage. The Pixel 3 XL will cost £869 with 64GB and £969 with 128GB of storage.Alongside the Pixel 3 smartphones, Google also unveiled a new Chrome OS tablet called the Pixel Slate, which can be paired with the Pixel Slate Keyboard to create detachable laptop with a full trackpad, following on from last year’s high-end Pixelbook 2-in-1.The Pixel Slate has a high-resolution display with a screen density of 293 pixels per inch, similar to some smartphones, and dual front-facing speakers. There’s a fingerprint scanner embedded within the power button, while the backlit keyboard attaches magnetically to the bottom of the tablet, closing over the screen to create a case similar to designs used by Samsung’s PC tablets.Trond Wuellner, product director for Google’s computing hardware, said: “The Pixel Slate provides a full desktop experience, not one designed for a phone, including full power Linux applications.”After the demise of Android-based tablets from all but budget media consumption devices, Google will hope its Pixel Slate can challenge both Apple’s iPad Pro and Microsoft’s Surface range of detachable Windows 10 machines including the recent lower-cost Surface Go.The Pixel Slate will cost $599 when it is launched in the US later this year, with the keyboard costing $199 and a stylus $99.Google also unveiled a revamped version of its Chromecast streaming stick, and a new Google Assistant-powered smart display called the Google Home Hub, which competes directly with Amazon’s Echo Show alongside Google Assistant smart displays from Lenovo, Harman and LG.The Home Hub has a screen and microphone, but does not have a camera, unlike most rivals. Diya Jolly, Google’s vice president of product management for Home and Nest said: “We consciously did not put a camera on the hub so that you’re comfortable putting Hub in the private spaces of your home like the bedroom.”The smart display will have customised versions of Google’s search, Maps, YouTube, Calendar and Photos. It will also have a new smart home management system called Home View aimed at simplifying the controls of lights, thermostats and other devices.The Google Home Hub will cost $149 in the US, available for pre-order from today.",technology,9
