"Natasha Hamilton has revealed she feels 'violated' after a man 'rubbed his manhood against her on a train.' The 36-year-old said she planned to report the incident, which happened on a packed train from a day out in London, to police.She wrote on Twitter: ' This vile excuse of a man just had his penis pushed up against me while on the overground train from London Bridge heading to Elmstead Woods.'I thought it was a bag until I felt him heavy breathing down my neck. I am appalled and calling the transport police when I get off!'Taking to the social media site a little later on, she wrote: 'Honesty I am shaking a feel so violated now! But more than anything I am so angry!!'I had the opportunity to take his picture before he left the train - this has to stop happening to people!' The British Transport Police told MailOnline in a statement: 'British Transport Police are aware of a report on social media of a sexual assault on a Overground train from London Bridge to Elmstead Woods yesterday (10/10/18).'Officers are making enquiries into this incident as part of an investigation.'We take every report of unwanted sexual behaviour with the utmost of seriousness – and through our Report It To Stop It campaign we are encouraging victims to come forward to tell us what happened. 'You can do this by using our simple and discreet 61016 text service or by calling us on 0800 40 50 40.'Thankfully, the rail network is a CCTV rich environment and we use every opportunity to use this crucial evidence to help prosecute suspects. 'We also work tirelessly to combat sexual offences by running covert patrols across the rail network with plain clothed officers.'   Natasha was commended on social media for calling out and reporting the man in question.Her followers wrote: 'People like that need to be in prison,I'm sorry Natasha to hear that happen to you I hope u filed a police report against such a disgusting low sick man,you will be strong Natasha the kittens and fans will stand by your side.' 'You should scream really loudly- embarrass him x' 'Surely that constitutes a sexual assault wether in or out of his trousers? hope you're ok btw as the shock of it all can hit u later xx.' [sic].  Natasha got engaged to Charles Gay in November 2016, showing off her diamond sparkler on Instagram at the time, as she announced the happy news.She wrote: 'After the most wonderful time in New York with the man I love, I was so high on life, little did I know he was planning something very special. 'He proposed and I said yes! I've had such an emotional rollercoaster few days @charlesgay I'll be stuck on cloud 9 for a long time...'This is just the beginning of our beautiful life together. I can't wait to see what adventures lie ahead. I love u xx.'Charles also shared the same picture on his Instagram, writing: 'Had the most amazing time in NYC with the most beautiful person I've ever met, inside and out. Natasha is a mother of four. She has Josh, 16, with Fran Cosgrave, Harry, 14, with Gavin Hatcher. She is also mother to Alfie, eight, with Riad Erraji and  Ella Rose, four, with Ritchie Neville from 5ive.  ",Celebrities
"Selena Gomez is receiving mental health treatment after suffering an 'emotional breakdown.'The 26-year-old singer has been hospitalized twice in the past two weeks, TMZ has reported.The first incident occurred at her Studio City home in the last week of September; friends said she was 'despondent and emotional' over her alarmingly low white blood cell count in the wake of her kidney transplant.She was taken to Cedars-Sinai where she stayed for a number of days, before being released.However late last week she had to be re-admitted for the same problem, but this time she reacted much worse.According to TMZ she tried to leave the hospital but doctors insisted she couldn't in her condition.She then 'freaked out' and had 'a meltdown', tearing the IV lines out of her arm.Selena was then taken to an East Coast psychiatric facility, where she is currently receiving dialectical behavior therapy.DBT — which Selena has undergone in the past — is used to treat various mental health disorders.The Heart Wants What It Wants hitmaker announced on September 24 that she was taking a break from social media.'As much as I am grateful for the voice that social media gives each of us, I am equally grateful to be able to step back and live my life present to the moment I have been given,' she wrote. 'Kindness and encouragement only for a bit! Just remember — negative comments can hurt anybody's feelings. Obvi.'Days earlier she opened up to fans in an hour-long Instagram Live session, in which she revealed 'depression was my life 'for five years straight.''Depression and anxiety was the forefront of everything I did in my life, every single thing.In September, her on/off boyfriend of eight years Justin Bieber reportedly married Hailey Baldwin. ",Celebrities
"Sheridan Smith will star in a documentary where she is set to visit her hometown for the first time since losing her father Colin, it was revealed on Thursday.The actress, 37, will talk candidly about her mental health struggles in the one-off ITV show, and will also take part in a homecoming gig on same stage she performed on with her parents when she was a child.Speaking about the film, the Funny Girl star said: 'Filming this documentary has been an incredible emotional rollercoaster.'She added: 'Re-visiting old haunts and finally performing at the Bentley Top Club where my parents featured regularly has been a very therapeutic experience and has made me realise just how important my roots, family and friends are.'Directed by Tim Pope, the documentary will see the actress return to her hometown of Doncaster for the first time since her father tragic death from cancer in December 2016, and embark on one of her toughest personal challenges yet.As well as her special concert, Sheridan will also explain how her experiences have influenced her songwriting and shaped her new album A Northern Soul, which is set to be released later this year.  Of the show, ITV's Head of Entertainment Siobhan Greene said: 'We are chuffed to bits to be working with Sheridan again in Sheridan Smith: Coming Home. 'She's a very special and talented girl whose honesty and heart burns brightly through the screen. 'It's a never before seen insight into her real life and how that's inspired her music. And how fab that viewers are going to see it all in Doncaster too.' Sheridan revealed her battle with depression and anxiety last year, which was triggered by her father's cancer diagnosis.But things have steadily got better for the actress, after she began a blossoming romance with former insurance broker Jamie Horn who she got engaged to in May, after just two months of dating.Jamie is said to have brought Sheridan back to her best - with the actress admitting she is in a 'very happy place' again, following a number of mental health woes.Discussing her man, she said: 'Where I'm at right now I feel like this is really good, I've got all that under control.'I've got doctors care, I'm feeling great, I got engaged, I'm in a very happy place (laughs) so I'm very happy and you know that's it. I couldn't ask for more really.'",Celebrities
"Love Island star Megan Barton-Hanson shared a candid post about the depths of her depression battle to honour World Mental Health Day on Wednesday.Sharing the post with her 1.8million Instagram followers, the 24-year-old former exotic dancer detailed her heartbreaking struggles, which included a bout of suicidal thoughts, spending money to try and escape and various therapy sessions.As with all her social media activity, Megan garnered thousands of likes and comments however fans will undoubtedly be shocked to see A-list star Amy Schumer throwing her support behind the star. Megan was a late entrant into the show and while she grew intimate with Eyal Booker and shared a kiss with Alex George, she soon turned her attentions to Wes - despite the fact he was paired with Laura Anderson, however his head was soon turned.While she found love in the villa, she was subject to much scrutiny on the outside as her past as an exotic dancer and glamour model became known.Despite this, she left the show in third place and has won fans all over - particularly after her appearance on Good Morning Britain in which she lobbied for society to stop judging women on their sexual past.She has now given further inspiration to her fans as she revealed her battle with mental illness before sharing an encouraging message with her fans. Among her legions of fans was Amy, who liked the picture and added a caption stating: 'Thank you Megan!' with a strong arm Emoji. Megan wrote: 'Today is world Mental health Day. I’ve put writing this off all day as depression and anxiety are still pretty raw for me and part of who I am... 'Mental health issues are more common than ever especially with the increased use of social media and the resulting feelings of inadequacy...'It’s funny because a lot of the time it’s the people that appear strongest on the outside that can also be the ones suffering the most on the inside...'You just don’t know what they are dealing with on a daily basis. It doesn’t seem like that long ago that it took so much just to get the mental strength for me to get out of bed and face the world each morning...'A lot of People cant get their heads around why if I was so depressed and suffering from anxiety I would go on a reality show. For me it’s was a make or brake moment... 'I'd suffered on and off with mental health problems since my teens. At the end of 2017/early 2018 was probably the lowest I’d ever felt...'There were a few times that I just didn’t want to wake up, I had suicidal thoughts, and had even gone to my mum sobbing about what I should do as I didn’t want to be alive anymore...'My way of coping was putting on a persona for social media, partying, earning money and buying half of Harrods!... 'None of it helped, maybe for 5 mins it distracted me from what was going on inside but as soon as I was back in my flat on my own the negative thoughts and emotions would return. I was sad and lonely with it, my own mind working against me... 'I did some therapy and that helped me by providing techniques for coping in moments of crisis. I’m so lucky that the Love Island opportunity arrived when it did. I didn't realise at the time what the impact of being away from it all in the villa would have on my mental state... 'I thought it would make me famous and I would earn lots of money and that would bring me happiness but actually it was more like a rehab retreat for me stripping everything back and forcing me to see what was most important in my life...'Meeting people and experiencing them loving me not for the persona I was presenting online gave me strength and made me realise that I need to love myself more...'It allowed me to see how strong I was without my usual coping mechanisms. For years I would do anything in my power to numb my depression and anxiety and now I’ve had to face it head on it’s the happiest I’ve felt in years... 'I’m far from fixed and still have moments but when I do I let someone know, I talk it through, I tell myself that although in this moment I feel weak it will pass...'I’ve dropped in and out of therapy and I know I still have lots of work to do but I’m getting stronger. I make a commitment to myself to continue that process...'A lot of the people who are suffering are the ones that outwardly look like they are having the best time. Always appearing super happy, strong and stable. So it’s so hard to know what’s going on behind the smile...'How are you? It’s amazing how powerful these three little words can be. Not only in letting someone know you care but also in making them ask themselves that very question and maybe in doing so making them realise that maybe they need some help... 'If you’re suffering today then remember that seeking help isn’t a weakness, it’s the most powerful thing you can do... Just the fact that you exist is amazing in itself. Don’t let the world and all of its stresses and pressures ever let you think otherwise...'We are all amazing and all need to love ourselves a bit more plus accept that sometimes we need help. So I guess I’ll end with asking how are you today?  Please try and ask someone you care about the same question. Sending all of you reading this love and strength. Meg.'Today is world Mental health Day. I’ve put writing this off all day as depression and anxiety are still pretty raw for me and part of who I am. Mental health issues are more common than ever especially with the increased use of social media and the resulting feelings of inadequacy. It’s funny because a lot of the time it’s the people that appear strongest on the outside that can also be the ones suffering the most on the inside. You just don’t know what they are dealing with on a daily basis. It doesn’t seem like that long ago that it took so much just to get the mental strength for me to get out of bed and face the world each morning.A lot of People cant get their heads around why if I was so depressed and suffering from anxiety I would go on a reality show. For me it’s was a make or brake moment. Id suffered on and off with mental health problems since my teens. At the end of 2017/early 2018 was probably the lowest I’d ever felt. There were a few times that I just didn’t want to wake up, I had suicidal thoughts, and had even gone to my mum sobbing about what I should do as I didn’t want to be alive anymore. My way of coping was putting on a persona for social media, partying, earning money and buying half of Harrods! None of it helped, maybe for 5 mins it distracted me from what was going on inside but as soon as I was back in my flat on my own the negative thoughts and emotions would return.  was sad and lonely with it, my own mind working against me. I did some therapy and that helped me by providing techniques for coping in moments of crisis. I’m so lucky that the Love Island opportunity arrived when it did. I didn't realise at the time what the impact of being away from it all in the villa would have on my mental state. I thought it would make me famous and I would earn lots of money and that would bring me happiness but actually it was more like a rehab retreat for me stripping everything back and forcing me to see what was most important in my life. Meeting people and experiencing them loving me not for the persona I was presenting online gave me strength and made me realise that I need to love myself more.It allowed me to see how strong I was without my usual coping mechanisms. For years I would do anything in my power to numb my depression and anxiety and now I’ve had to face it head on it’s the happiest I’ve felt in years. I’m far from fixed and still have moments but when I do I let someone know, I talk it through, I tell myself that although in this moment I feel weak it will pass. I’ve dropped in and out of therapy and I know I still have lots of work to do but I’m getting stronger. I make a commitment to myself to continue that process.A lot of the people who are suffering are the ones that outwardly look like they are having the best time. Always appearing super happy, strong and stable. So it’s so hard to know what’s going on behind the smile.How are you? It’s amazing how powerful these three little words can be. Not only in letting someone know you care but also in making them ask themselves that very question and maybe in doing so making them realise that maybe they need some help. If you’re suffering today then remember that seeking help isn’t a weakness, it’s the most powerful thing you can do. Just the fact that you exist is amazing in itself. Don’t let the world and all of its stresses and pressures ever let you think otherwise. We are all amazing and all need to love ourselves a bit more plus accept that sometimes we need help. So I guess I’ll end with asking how are you today? Please try and ask someone you care about the same question. Sending all of you reading this love and strength. Meg.  ",Celebrities
"Emma Stone has revealed how she got up to some raucous antics with her co-stars Olivia Colman and Rachel Weisz in the run-up to making a riotous romp of a film about Queen Anne.‘It was a unique rehearsal process, where we were being ridiculous with each other . . . for two weeks,’ the Oscar-winning star said of working on The Favourite, directed by Yorgos Lanthimos.The film — a heady mix of fact and fiction — explores life at the court of Queen Anne, and the rivalry between two courtiers: Sarah, Duchess of Marlborough (played by Weisz) and the lowly Abigail Masham (Stone), who sets out, with ruthless determination, to supplant the duchess in the monarch’s affections. The performances run the gamut from delicious to delightful.Stone, who won a best actress Academy Award for La La Land, explained that the director’s pre-filming preparations were designed to make them feel relaxed and comfortable in each other’s company.‘It was an interesting way to learn that we’d be safe with each other,’ Stone said, mysteriously.Lanthimos, who made The Lobster and The Killing Of A Sacred Deer, added that the three main characters are ‘complex and complicated, and at any given time in the film they can be doing things you don’t necessarily expect from them’.The filmmaker was being marvellously understated —because the events that take place in the picture are so wonderfully wicked that much of their cavorting I simply can’t describe in a family newspaper.Let’s just say that what Queen Anne and her ladies in wanting, sorry waiting, get up to certainly wasn’t discussed in any of the history books I read at school.Some of the ‘facts’ (amid the fiction) in the Film4 picture are referenced in the more scholarly biographies of Anne.It will be screened at the BFI London Film Festival from October 18, and has a general release on January 1, 2019.‘I’ve forgotten some of the things we invented,’ Lanthimos told me, airily.‘Except Anne didn’t really have any rabbits.’In the film, the Queen has a pet rabbit to represent every child of hers that died. I counted 17. ‘We tried to make these women not one-dimensional,’ he added, ‘and you understand that they’ve been through a lot — and then go through a lot more.’Stone joked that she and the other actresses were ‘mutually shocked’ by what went on inside (and outside) Anne’s private apartments.The U.S. actress told me: ‘Your royal history wasn’t so picture perfect! Henry VIII beheaded his wives.‘And there were certainly things going on during other reigns that were violent and sexual.’Colman, who won the best actress prize at the Venice Film Festival for her portrait of Anne, is now shooting the third series of the Netflix hit The Crown, in which she portrays Elizabeth II. Her work in The Crown will be streamed on Netflix next autumn.I can’t wait to view Colman’s queens one after the other. There are bound, for reasons that will become clear once you’ve seen The Favourite, to be giddy moments of discombobulation.The acclaimed, must-see Broadway musical Dear Evan Hansen has settled on a West End theatre and will open in November 2019.The show’s producer, Stacey Mindich, told me she was won over by the Cameron Mackintosh-owned Noel Coward Theatre.The production’s branding features a lot of blue, and Ms Mindich observed that ‘funnily enough’, the Coward has a blue stage door.Dear Evan Hansen, which last year won six Tony Awards — including Best Musical — is about a fictional 17-year-old student who lives in an unnamed American town with his divorced mother.Evan, a high school senior, has a social anxiety disorder that is exacerbated when he is caught up in another family’s tragedy after their teenage son commits suicide.The show has a score by Benj Pasek and Justin Paul, who also wrote the lyrics for the film La La Land and the Hugh Jackman movie The Greatest Showman.Its strength lies in the beautifully sensitive language used by Pasek, Paul and Steven Levenson, who wrote the show’s book.Evan sings about ‘waving through a window’, but worries: ‘Is anybody waving back at me?’His mother Heidi sings about making sure ‘today is going to be a good day’ for her son.Producer Mindich said that she, director Michael Greif and the authors are ‘more committed than ever to make sure we have a British cast . . . We want the European public to feel the actors are rooted in their world,’ she told me, and said that casting (which will be colour blind) is still ‘wide open’, though she joked: ‘There are some suspects in London we want to investigate.’One is Tyrone Huntley, who won awards for his performance as Judas in the Open Air Theatre’s Jesus Christ Superstar (I wrote about Huntley and Evan Hansen back in March).Mindich has seen a tape of Huntley singing the hit Waving Through A Window, however it’s not known whether the creative team has.She said ‘we’ll be searching everywhere’, including open and closed casting calls, plus looking at ‘kids right out of college’.‘It’s so hard to find a young boy with the stamina and the vocal range and vulnerability,’ she added. ‘There’s a particular joy in discovering someone new — and yet there’s a particular comfort with somebody who’s seasoned, at the ripe old age of 20-something.’A UK casting director will be contracted by the end of next week and one task will be to look through videos sent in since my scoop about Evan Hansen in March.Mindich said several young men had sent videos to her company and the show’s website, declaring: ‘I’m Evan Hansen.’Ticket details will be revealed soon. Sign up for information at DearEvan Hansen.com/LondonJones is keeping up with current affairs Felicity Jones has been keeping an eye on the Brett Kavanaugh Supreme Court nomination hearings. She feels that, with present political leaders in the U.S., ‘there’s not a lot of hope at the moment’.Part of the reason the actress cares so much is because she plays future Supreme Court justice Ruth Bader Ginsburg in a film called On The Basis Of Sex.‘It’s incredibly relevant, and I feel Ruth brings hope. She is someone who has real integrity — definitely something we’re lacking,’ Ms Jones told me from the set of director Tom Harper’s film The Aeronauts, which reunites her with Eddie Redmayne — her co-star in the award-winning The Theory Of Everything.Jones described Ginsburg as a ‘true force’ who stuck by her beliefs ‘from the very beginning’.As an attorney back in the Seventies, Ginsburg made the Supreme Court understand that there really was such a thing as sex discrimination. Watch out for... Sian Brooke, Joshua McGuire and Alex Hassell, the central characters in David Hare’s riveting new political play I’m Not Running, previewing at the National Theatre. Directed by Neil Armfield, it’s a powerful piece about a doctor (Brooke, right) who leads a hospital campaign in Corby that gives her a national political reputation — much to the chagrin of a former beau (Hassell) who aspires to lead the Labour Party. The doctor is helped by a communications bruiser played by McGuire. I was hooked on every word because it was fiction I wanted to be real.John Macmillan, Hayley Squires, David Suchet and Russell Tovey, all on top form in director Jamie Lloyd’s production of The Lover and The Collection — part two of the season of Harold Pinter short plays at the Harold Pinter Theatre, under the banner Pinter At The Pinter.I had a terrific time, though I was sold a dodgy ticket. When I complained the box office person trilled: ‘Well the seat’s not directly behind the pillar.’ True. It was one seat removed.Lloyd has ensured there are plenty of low-priced seats but the theatre’s owners Ambassador Theatre Group have a thing goin’ on with high-priced tickets that include ice cream and bubbly, whether you want the damn stuff or not. I was pretty mad. But I must thank Lloyd for helping find a better seat (same price) and providing a good double bill.   Greengrass finds hope in tragedyCelebrated filmmaker Paul Greengrass said all his films — including Bloody Sunday, United 93, Green Zone, Captain Phillips, the Bourne movies and his latest picture 22 July, about the killing of 77 people by extreme right-wing terrorist Anders Breivik — are connected.‘The factual and the fictional ones are related to what I did on World In Action,’ he said, referring to the landmark Granada weekly news documentary series where he got his start, aged 22.‘The job was to get out in the world and observe,’ he told me, adding that he applies the same disciplines in his big Hollywood thrillers and more intimate films, such as 22 July, which he filmed on locations in Norway using an all Norwegian cast and crew. Greengrass read the testimony of killer Anders Behring Breivik and met Jens Stoltenberg, Norway’s prime minister at the time of the 2011 massacre.‘I went to ask him if he thought it was an inappropriate idea to make the film. I needed a cautious reading of the situation. You don’t want to walk into peoples’ tragedy and intrude, frankly.’Stoltenberg gave him the green light, as did the families of the murdered, and the survivors.Greengrass opted to make the film in English, after the actors told him Norwegians are bilingual. ‘I don’t speak a word of Norwegian, so that was easy.’The film concentrates as much on the survivors, particularly student Viljar Hanssen (played by Jonas Strand Gravli), as the killer. Their voices are a powerful counterpoint to Breivik’s hate.It serves as a warning of what can happen when populism and nationalist ideology get out of hand. But it’s also a masterpiece about how the love of family and friends can conquer hatred.Netflix will stream 22 July from October 10, when it is also released in 12 UK Curzon cinemas.",Celebrities
"Ralph Fiennes will be going into the trenches in the new Kingsman film: a prequel that will explore the origins of the intelligence organisation.The first two films — The Secret Service and The Golden Circle — had Colin Firth and Mark Strong supporting Taron Egerton as Eggsy, the young man recruited into the Kingsman clan.But the third picture — currently known as Kingsman: Untitled — will be set during World War I and will focus on the man who would be Kingsman: a character to be played by Fiennes.Plot details on the film, which shoots early next year, are sketchy; though I understand it will include some fictional storylines involving the real life Duke of Lancaster’s Regiment which, for more than a century, has included Kingsman as a unique rank, the equivalent of private.Producer and director Matthew Vaughn and his team have started booking studio space for the picture, which will be released on November 8, 2019 — the date originally claimed by Bond 25, before behind-the-scenes upheaval forced the 007 picture to shift to a February 2020 release.Fiennes is expected to be in that film, too.The actor is riding high at the moment, what with top notices for his Antony (opposite Sophie Okonedo’s marvellous Queen of the Nile) in Antony and Cleopatra, which I saw at the National Theatre on Tuesday.And last week I revealed that he will star with Nicole Kidman in The Dig, which films next summer.Up-and-coming actor Harris Dickinson will join Fiennes in the third Kingsman movie.Dickinson is currently appearing in the Getty family drama Trust, directed by Danny Boyle on BBC TV. He plays teenage kidnap victim John Paul Getty III.Theatre legends give exiting first preview of reimagined Company Theatre legends Patti LuPone and Stephen Sondheim, above, were holding forth in the Gielgud Theatre’s stalls bar following the exciting first preview of a reimagined Company.The landmark musical about sex and friendship in New York City, by Sondheim and George Furth, has had a sex change. The lead part of Bobby is now Bobbie; and she’s played by Rosalie Craig.Other parts originally played by women are now taken by men, while LuPone plays one of the original ladies who lunch. The show comes from the award-winning team of director Marianne Elliott and producer Chris Harper.Sondheim and Elliott have a lot of finessing to do before the official opening on October 16. In the rush to get the show on, one number (Tick Tock) was omitted. It’s going in from tomorrow.Stand by for Abba fab party nights Abba singer-songwriter Bjorn Ulvaeus has enjoined fellow Scandinavian Sandi Toksvig (UK-based for years) to write the British version of Mamma Mia The Party, an immersive show featuring Abba songs, dinner, dancing, a fountain and Nikos’ Taverna (modelled after the Greek one in the Mamma Mia films).There will be five musicians and eight actors. Audiences at the venue — a remodelled nightclub within the 02 — will be able to sing along and enjoy a knees-up. Ouzo will be served at table, and there will be themed bars.Ulvaeus told me that Mamma Mia The Party has been running in Stockholm for two and a half years. There’s a choice of five dishes on the menu, which will be served on platters. ‘There are tables for four and upwards, and people will share,’ said Ulvaeus, adding that around 500 people will be seated at each performance.He said that the table sharing has ‘led to some romances in Sweden’.Ulvaeus also told me that he has spent ‘happy hours’ with Toksvig developing a Brit storyline; and he plans to consult the Great British Bake Off presenter about the menu. ‘Sandi’s Sundae (Greek style)!,’ he joked.Around 22 of the group’s classic songs, plus a few less well known ones, will feature in the event, which will start at the 02 late next spring.Visit mammamiatheparty.com/gb/en/ for London ticket info.King Jon put on his crown for Hamilton The King is abdicating — long live the new monarch.Michael Jibson, who won an Olivier Award for his wicked portrait of George III in the acclaimed Lin-Manuel Miranda musical Hamilton at the Victoria Palace, is leaving the show in November after a year’s run.The hip-hop sensation tells the story of Alexander Hamilton, one of America’s founding fathers.Jon Robyns will take over Jibson’s crown and play the king who lost America, from early December.Jamael Westman will continue in the title role, though he will take a break between December 17 and January 12, when Ash Hunter will portray the rapping statesman.Giles Terera, who won an Olivier (best leading actor in a musical) for playing Aaron Burr, is also leaving the show. He will be replaced by Sifiso Mazibuko.But Tarinn Callender, Rachelle Ann Go, Jason Pennycooke and Cleve September are all staying on at the Victoria Palace.Allyson Ava-Brown (right) has been cast as Angelica Schuyler while Dom Hartley-Harris will play George Washington.Death becomes her as Jodie eyes PoirotJodie Comer, so good as Russian super assassin Villanelle in first-rate BBC drama Killing Eve (you can watch all eight episodes on BBC iPlayer), is in early talks to join the all-star cast of Kenneth Branagh’s version of Agatha Christie’s Death On The Nile.It follows the filmmaker’s Murder On The Orient Express. Branagh will once again direct and play Hercule Poirot: he of the luxurious mustache and ‘little grey cells’.Armie Hammer is also in discussions to join the project, while Tom Bateman — who helped Branagh’s Poirot solve the last murder, is likely to join the voyage. Ms Comer, along with Sandra Oh, Fiona Shaw and Sean Delaney, are already filming season two of Killing Eve.",Celebrities
"It's clear from watching the new version of A Star Is Born that director and leading man Bradley Cooper was a little bit in love with his star Lady Gaga.'No, that's not right,' he contradicted me.I was about to respond, but Cooper wasn't finished. 'We fell madly in love. Both of us,' he said, matter of factly.The romance was consummated in front of cameras and it's there for all to see in the garlanded picture, which had its London premiere last night and goes on general release on Wednesday (October 3).Scroll down for video 'It's what you hope happens, professionally. That you can just totally go into that place without acting and be as open as you can,' the 43-year-old, Oscar-nominated actor told me during an interview this week at the Ham Yard Hotel in central London.I know Bradley's love was reciprocated, because Lady G told me in Toronto that the film got made because of 'love, work and dedication', adding that she couldn't help 'falling for my director'.'I was in his hands, and trusted him completely,' she said.When news started emerging three years ago that Cooper, who starred in Silver Linings Playbook, American Sniper and the Hangover movies — not to mention the play Elephant Man on Broadway and in the West End — wanted to remake A Star Is Born there was widespread derision.There had already been three iterations of the tale about a famous male entertainer falling for an ingenue — played in the past by Janet Gaynor (in 1937); Judy Garland (opposite James Mason in 1954); and Barbra Streisand (with Kris Kristofferson in 1976).Cooper admitted that he read one of those articles. 'It was horrible and almost made me think I shouldn't do it,' he said.But the film works, magnificently.The opening credit scene shows Ally (Gaga) exiting her place of employment to the underlying strains of Somewhere Over The Rainbow (an homage to the 1954 film) and waving her arms as the title is spelled out on screen.What follows is an out-and-out love story and you fully believe the moment Cooper's singer, Jackson Maine, loses his heart to Ally, a woman struggling to be heard.Ally writes her own songs but is stuck in a dead-end job at a restaurant. She gigs at a drag club, where Maine hears her singing La Vie en Rose and is captivated.That song's significant because the first time Cooper heard Lady G sing was when he attended a private cancer charity event (with his mother) at the Los Angeles home of IT entrepreneur Sean Parker. 'She did La Vie en Rose and she was a revelation.'He immediately asked her agent if she'd be interested in discussing A Star Is Born and the response was positive.'She hadn't been on my radar and I was a little bit at sea with finding someone,' he said.'I went to her house. It's daunting to meet Lady Gaga but she put me at ease. She introduced herself as Stefani (her real first name) and in the back of my mind I'm thinking: 'If I can just capture this, along with that voice, then we're going to be OK.'The result is way beyond OK. I've seen the film three times over the last couple of months and it's easy to see why both stars have legions of fans (of both sexes).They are dynamite together and she's giving one of the best performances of the year. A movie star has very much been born.But Cooper said he had to argue his case to cast her. And he understood some of the negative vibes about the project.'I'm a first-time director wanting to make the fourth remake of a movie — and my star's never made a movie before.'During those three years Cooper went on the road meeting musicians, trying to get a sense of who Jackson Maine the rock star would be.Once Lady G was on board, she helped him with his singing and guitar playing. He co-wrote several songs in the film — which makes him the leading man, director, co -screenwriter, singer and song writer (one of the most audacious feats in recent Hollywood history).Cooper's Jackson Maine comes across as a gentle soul, but his boozing and drug taking is out of control. He also has tinnitus, which doesn't help.His character's not jealous of Ally's success. Rather, he wants to her to succeed with integrity, without having to sell out.One moving scene shows her winning an award — but he can't hear what she's saying. Thinking she's summoning him up on stage, he goes to join her, and is humiliated.A Star Is Born is going to be huge at the box office; and one of the big ten contenders going full swing into award season.No wonder Cooper's blue eyes were sparkling despite an 11-hour flight through the night on a private jet from LA, where he'd attended the U.S. gala.To think that a few years ago he almost quit the business. Now he's making movies on both sides of the camera, which was long his aim.And he's the man who put Stefani Joanne Angelina Germanotta front and centre on the cinema screen. ",Celebrities
"After the imbroglio that saw the Oscar-winning film director Danny Boyle dramatically quit Bond 25, there are stirrings in the Secret Service world of 007.Boyle and screenwriter John Hodge withdrew from the movie, which had been due to shoot later this year, when Bond actor Daniel Craig (right), along with Barbara Broccoli and Michael G. Wilson (the long-time guardians of the Ian Fleming film franchise), wanted to use another writer. Boyle refused and left.The whole thing’s a hot mess and Broccoli has been in Los Angeles meeting a variety of film-makers who might take over directing duties.However, things are moving on the script front.Neal Purvis and Robert Wade (who were originally hired to write Bond 25 — its working title — before Boyle and Hodge were lured) have had their licence renewed and have bonded with Bond again.‘The Purvis and Wade treatment they wrote earlier was already signed off before the bromance with Danny Boyle and John Hodge began,’ a Hollywood executive close to the production explained.Purvis and Wade, working on their seventh 007 thriller, will develop their ‘treatment’ into a script.That won’t be the end of it, though, because once a director has been contracted (heaven only knows who and when), he or she will want to put their own stamp on it in the way that Sam Mendes (who was at the helm of Skyfall and Spectre) brought in screenwriter John Logan, though in both instances Purvis and Wade contributed to Logan’s scripts.There’s a keenness for women to be more front-and-centre in Bond 25, which will be Craig’s last run as Fleming’s famous ‘blunt instrument’ of a British intelligence operative.Jessie's in full bloom as Wild RoseTalk about a star is born! There was a frenzied bidding war in Toronto this week for a movie starring Jessie Buckley as a Glaswegian mother of two who has country music in her soul.Buckley plays Rose-Lynn, a young woman just released from a year in jail for a drugs offence, who dreams, improbably, of singing in Nashville.As directed by Tom Harper (who cast the Irish actress in War & Peace for the BBC) and with a script by Nicole Taylor, Wild Rose is a powerful drama driven by women — Julie Walters appears as Rose-Lynn's mother and Sophie Okonedo plays a wealthy local woman who recognises the would-be singer's potential.'She's got all the wolves inside her running at 900 mph, but she doesn't know how to steer the wolves,' Buckley said of her character's inner turmoil when we met at the Fairmont Hotel in Toronto. 'She feels she's not entitled to go for success because of the prison of her life.'Rose-Lynn has a destructive personality and doesn't know how to get out of her own way.'Singing is the only way she can harness those feelings,' Jessie explained.It's a breakthrough performance for Buckley, in a searing role — like a bolt of lightning hitting the screen — and it's going to catapult the 29-year-old to major stardom.Jessie grew up 'at the foot of a mountain' in Killarney, Co Kerry, surrounded by music and a love of the arts. She remembers, as a toddler, accompanying her mother, Marina, to London when she was training to be an opera singer. 'I would go with my mum to these classes. I would be at the back, in my nappy, having a dance.'Her father, Tim, wrote poetry and stories. 'I always felt at home telling stories,' Jessie says. 'Probably more so than living my own life. I'm much better in other people's shoes than being myself.'Before being cast in Wild Rose she had never been into country music.'I thought it was a bit hick, but it has got inside my heart,' she said, noting that she and screenwriter Taylor wrote several of the songs featured in the film, and that an album will go on sale when the picture is released early in 2019 (though audiences can catch it at the BFI London Film Festival next month).'You get an electric fireball of feeling listening to country. Rose-Lynn talks about country being 'three chords and the truth'. Country music is of the people; and Rose-Lynn is of the people, too,' Buckley told me.Director Harper catches an authenticity about Rose-Lynn; and Glasgow's working-class Priesthill district is a character in itself.Wild Rose won rave notices from critics in Toronto, where NEON snapped up the picture's American distribution rights. Buckley delighted festival-goers when she sang some numbers from the film at an outside concert.She is already a star in the UK, thanks to TV roles in The Woman In White, Taboo and War & Peace, and created an indelible impression on 2008 talent show I'll Do Anything.Cameron Mackintosh has long been a fan, and he and Working Title producer Tim Bevan might want to look at her to play Nancy in a new screen version of Lionel Bart's Oliver!, which has been a long time in development. And while I'm on the subject, wouldn't Eddie Redmayne be brilliant as Fagin?In the meantime, though, Buckley has graduated to the international star she was born to be. Why Slumdog Dev was quick to sign up for a shogun weddingDev Patel moved swiftly the moment he read film-maker Michael Winterbottom’s script for his new movie, The Wedding Guest.Within three weeks of devouring the screenplay, Winterbottom, Patel, actress Radhika Apte and other cast and crew were on locations in Pakistan and India.‘Six weeks after that, we’d finished the movie,’ noted the actor (right) as we shared a packet of crisps in a nondescript room at the Intercontinental in downtown Toronto, where the film was shown at the Toronto International Film Festival.Patel was cast as a man of mystery who, when you first see him boarding a flight in London to Pakistan and then purchasing a gun and bullets, you immediately assume is a terrorist. But he’s actually in Pakistan to kidnap a bride.I was so hooked by the sleek, lean film that I watched it twice, and the spiky relationship (love and betrayal) that developed between Patel and Apte reminded me, at various points, of Bogart and Bacall, or Warren Beatty and Faye Dunaway in Bonnie And Clyde. That’s because Winterbottom refused to let his film adopt the usual cliches of pictures set on the Indian continent.‘There’s normally an element of subservience in the Indian characters,’ Patel observed. ‘This is just a story about two human beings and it happens to be set in this beautiful country.’There was a lot of improvisation. For one scene, Patel was left in a busy street attempting to make the locals understand his British accent.‘You are left to sink or swim, and either way Michael’s cameras are going to find you,’ said the star of Slumdog Millionaire and Lion.A spoonful of stardust for Mary PoppinsSupercalifragilisticexpialidocious! Yes, Mary Poppins is back — and not just in the blockbuster Disney film starring Emily Blunt and Lin-Manuel Miranda, but with Zizi Strallen and Charlie Stemp larger than life on stage.The show will open in the autumn of 2019 at the Prince Edward Theatre, the very same venue that the Cameron Mackintosh and Disney production opened at in 2004.Aladdin, the current occupant of the Prince Edward, will end its run on August 31, 2019.Mackintosh cast Stemp in the lead role in Half A Sixpence at Chichester Festival Theatre, and later at the Noel Coward Theatre. That show made Stemp a star.Broadway producer Scott Rudin whisked him over to New York and had him appear with Bernadette Peters and Bette Midler in Hello, Dolly! as lovestruck Barnaby Tucker.‘He really made something of that part; he made it special,’ said Mackintosh. ‘He stood out and became a star in New York.’I saw him in it, so can vouch for the fact that Stemp’s dancing feet wowed Broadway.Matthew Bourne and co-choreographer Stephen Mear are planning to give Stemp some special steps when they begin work on Poppins with director Richard Eyre.Bourne is already acquainted with Zizi Strallen because she danced in his company.‘We’ll rebuild the show around both of them,’ said Mackintosh, who reminded me that Strallen played the famous nanny in a tour of the show. More recently she has been in Strictly Ballroom at the Piccadilly Theatre and Follies at the National Theatre.Impresario Mackintosh told me that the creative team, including writer Julian Fellowes and songwriters George Stiles and Anthony Drewe (who wrote some new numbers), along with designer Bob Crowley, redesigned and re-staged the production when it toured the UK and globally.It’s presently playing Hamburg and Tokyo and is about to hit Milan.‘Everyone thought it was going to be a movie on stage, but it isn’t,’ insisted Mackintosh. ‘It’s a proper stage musical.’Mackintosh said that he and Disney’s global theatre boss Thomas Schumacher wanted to announce the new stage production of Poppins now so it was well in advance of the film, which opens on December 21 in the UK.But tickets for the musical won’t go on sale until January, well after the film has opened. Meanwhile, fans can register for stage show tickets at website marypoppinsonstage. co.uk, which goes live shortly.Watch out for....Bradley Cooper — hot on the heels of the spectacular success in Toronto of his A Star Is Born starring a luminous Lady GaGa — will portray legendary maestro Leonard Bernstein (who wrote the scores for West Side Story, On the Town and Wonderful Town) in a film of the great composer’s life. Cooper will also direct the film which is due to start shooting next year. The script’s being written by Josh Singer who’s also being lauded for his work on director Damien Chazelle’s fabulous film First Man about Neil Armstrong - the first man to set foot on the moon - and his wife Janet.There was a deeply heartfelt moment during the Toronto International Film Festival when Mark Armstrong, one of the couple’s two sons, praised Claire Foy’s excellent portrait of his mother, who died last June. I spoke to Armstrong later and he said that Foy captured his mother’s ‘feistiness’ adding: ‘It’s uncanny. She just got her, and I think the performance stands as a eulogy to my mother.’2/ Rosamunde Pike, who gives a riveting, spellbinding portrayal of war correspondent Marie Colvin in director Matthew Heineman’s gripping A Private War which had its world premiere at the Toronto International Film Festival last night (Friday). Pike is without fear as an actress and she’s at her best in this film which explores the cost involved in going to the darkest places on earth and reporting on stories that dictators and warlords don’t want uncovered. The movie will be shown at the BFI London Film Festival on October 20.3/. Cynthia Erivo, who stars with Viola Davis, Elizabeth Debicki and Michelle Rodriguez in Steve McQueen’s powerful political thriller, with a cherry of a heist on top, Widows. It’s based on the 1980s TV series by Lynda LaPlante. It’s a personal triumph for Erivo because the sizzling blockbuster marks her film debut. Ms Erivo is an actress who consistently delivers, yet she has to beg for work in Britain. She begged the Menier Chocolate Factory to meet with her for The Color (CORRECT) Purple musical after they kept ignoring her. Same story with the the British director of a film that’s casting now. He belittled Erivo, but I bet he’s sick when he sees her name and face on The Widows poster. She has completed three further films and is to portray Harriet Tubman, who helped liberate slaves in the Deep South, in a television film .4 . Jenna Coleman star of ITV drama Victoria, and Colin Morgan will star with Sally Field and Bill Pullman in Arthur Miller’s play All My Sons, which Jeremy Herrin will direct at the Old Vic from next Spring.",Celebrities
"A Star Is Born (15)Verdict: She really isMy own personal history with A Star Is Born is rather intimate. The 1954 version with Judy Garland was my late mother’s favourite film and the 1976 version with Barbra Streisand was the backdrop I apprehensively chose for my first date, ever, aged 14, at the ABC in Southport.There had earlier been a double date at the pictures with my friend Gary — The Man Who Would Be King. By which I mean the film, not Gary, though he was quite full of himself.But for A Star Is Born I bravely flew solo, just me and a girl called Susan, as I think most girls were in 1976. For the record, Streisand and Kris Kristofferson had hopped in and out of the sack several times by the time that I dared even to attempt that awkward pretend-stretch, arm-around-the-shoulders thing. So I remember the film all too vividly and wherever she is now, Susan doubtless does, too.The point is, if you’re of a certain age, you too probably have some history with A Star Is Born.So it is first and foremost a relief to report that Lady Gaga, in the title role, following the trail blazed by Garland (and actually before her, in the 1937 non-musical original, by Janet Gaynor), is absolutely, scintillatingly, wonderful.Bradley Cooper is on terrific form, too, as the self-destructive star who is first beguiled by the ingénue, then falls in love with her, then watches in a fug of pride, bewilderment and resentment as her career eclipses his.Fredric March and James Mason played the role as fading movie stars before it was revived by Kristofferson as a rock star in decline.Cooper, whose directorial debut this is, also plays him as a rock star, which yields the pleasingly symmetrical quirk of him and Lady Gaga each venturing into the other’s territory, him singing and her acting. Both pull it off, triumphantly.Cooper is Jackson Maine, whom we first see on stage with his band, fuelled by pills and booze, going through the motions of his act. The audience, watching through the ever-present prism of their iPhones, are appreciative more out of habit than conviction.Meanwhile, we cut to Gaga, playing a disgruntled waitress we know only as Ally, breaking up with someone over the phone. It’s a corny way to tell us she’s now available for love, and indeed this is a corny tale, but it’s high-class corn from start to finish.After leaving the gig, Jackson gets his driver to take him to a bar, any bar. He happens on one where, although it’s drag night, Ally has a slot as a singer.She belts out a version of La Vie En Rose that Edith Piaf herself would have applauded, and Jackson is duly entranced.Soon they are swapping life stories. ‘A hundred and twenty-seven acres, Navajo and nowhere to go,’ he says of his childhood on a remote pecan farm. Screenwriter Eric Roth doesn’t mind the characters conversing in song lyrics. Smitten, Jackson flies her by private jet to one of his gigs, where she watches from the wings until, without warning, he pulls her up to sing with him. It’s a scene as captivating as it is unlikely.Naturally, their improbable duet goes viral on YouTube, to the perplexed delight of her Italian-American, blue-collar dad (Andrew Dice Clay) who, reminding me inexorably of Amy Winehouse’s father Mitch, keeps telling everyone that he was quite a crooner himself, back in the day.And if you’ve seen any previous incarnations of this story, especially the Streisand-Kristofferson version, you know the rough trajectory of what happens next. With the help of an oily British manager (Rafi Gavron) Ally’s career soars, her face shining out from giant billboards, while Jackson’s nose-dives.At the Grammys, she is feted as the new sensation, while he is humiliatingly stood down even from a Roy Orbison tribute. Further humiliation, on an almost nuclear level, ensues.Cooper, as director and actor, keeps all this pulsatingly real. There’s lots of effing and blinding, but mainly effing, which is no doubt entirely true to life. There are also bits you don’t remotely believe in. For instance, nobody, including Ally’s manager, refers even obliquely to her extravagant new earning power, which is obviously preposterous.But none of it matters, because the story is so engaging, and there is genuine, fizzing chemistry between the two leads. Jackson’s character is fleshed out nicely with some health problems (tinnitus) and a complicated relationship with his decent, concerned older brother (Sam Elliott).But Gaga is the one you can’t take your eyes off.She shares something of Streisand’s qualities, looking plain one minute, bewitching the next. And there are echoes of Garland the show-stopper in there too.But this is not a copy-cat performance. This is a dazzlingly original silver-screen debut. An acting star is born.Johnny English Strikes Again (PG)Verdict: We wish he wouldn’tJohnny English Reborn was the last outing for Rowan Atkinson’s cack-handed secret agent, in 2011, and I for one wouldn’t have minded if he’d been retired to Powers Towers or wherever parody spies go to eke out their days.But no, here he is in Johnny English Strikes Again, a damp squib of a comedy that not even Atkinson’s well-honed clowning, frowning and gurning act can rescue.This time, a dastardly super-villain is cyber-hacking Britain to death, rerouting all the planes in Europe to Luton, and all the trains to Bristol Temple Meads. English and sidekick Bough (Ben Miller) are assigned to the case, leading them inevitably to the French Riviera, where they encounter a Russian femme fatale played by Olga Kurylenko, in a comic reprise of her Bond girl in Quantum Of Solace.Emma Thompson enjoys herself as the gullible Prime Minister, in thrall to a slimy tech billionaire played by Jake Lacy (think Theresa May making eyes at Elon Musk).There are also a few decent gags (I smiled at the health and safety briefing English is obliged to undertake when handed his weapons), and a couple of inspired set-pieces.But a desperately laboured scene in a restaurant, with our hapless agents pretending to be French waiters, is more typical of the whole second-rate enterprise. Mercy for a mass murderer As well as making the odd Bourne movie, British director Paul Greengrass has crafted an impressive career, writing and directing films based on traumatic real events.These include United 93, about 9/11, and the TV films Bloody Sunday and The Murder Of Stephen Lawrence.Now, in a Netflix production receiving a disappointingly limited theatrical release, he has turned his expert eye to the gun-and-bomb slaughter wrought by far-Right fanatic Anders Behring Breivik in Norway on July 22, 2011. It’s as grim and powerful as you’d expect, and astutely tells the story of that day and its aftermath by focusing on one survivor.So the carnage in which 77 mostly young people died, although evoked with harrowing realism, is all over in the first half hour or so. After that, the film chronicles the tribulations of badly-injured teenager Viljar Hanssen (Jonas Strand Gavli), who must decide whether he will testify at Breivik’s trial. Greengrass tackles the difficulty of this being a story set in Norway but intended for English-language markets, by using Norwegian actors speaking in English. It works well, and compounds the sense that the film is as much a portrait of a country as of a terrorist outrage.For example, Breivik (Anders Danielsen Lie) is treated with remarkable civility after his crime, and is calmly given medical treatment after cutting his finger on a shattered fragment of a victim’s skull. Some societies would have made him suffer, but Greengrass doesn’t labour the point.He is not averse to politicising his films, but lets this one speak eloquently for itself.VenomVerdict: Toothless Venom opened in UK cinemas earlier this week without anything like the kind of hoopla that usually attends a new film based on a Marvel Comics character.That might be because it’s not part of the Marvel Cinematic Universe, but actually the inaugural product of a complicated deal between Marvel and Sony. Alternatively, it might be because it’s just not much good.British actors Tom Hardy and Riz Ahmed play American antagonists Eddie Brock and Carlton Drake. The former is an investigative reporter in San Francisco with his own hard-hitting TV show, at least until he is sacked for confronting the latter, a brilliant but dastardly boffin who yearns to achieve physical symbiosis between humans and aliens so that he might colonise outer space. An evil scientist? So far, so hackneyed.But it’s not a lack of originality that sucks the life out of Venom, more the creeping sense that it’s basically a B-movie in the guise of a blockbuster, bereft of wit, swagger and pizzazz, and with strangely lacklustre special effects.Hardy does his considerable best as Brock, who picks up a gooey alien parasite which makes him want to eat everything in sight, like a muscular Billy Bunter, and gives him an inner voice which is meant to sound sinister but reminded me unhelpfully of the Sugar Puffs Honey Monster.The upshot of this is that he is possessed by Venom, a behaviourally challenged superhero, and duly finds an arch-enemy called Riot. Unfortunately, the film, despite a fine cast which also includes a woefully under-used Michelle Williams as Brock’s girlfriend, is anything but a riot.Blindspotting (15)Verdict: Energetic and originalBlindspotting, also set in northern California, offers a kind of hip-hop hymn to Oakland and its large African-American population. It’s safe to say that director Carolos Lopez Estrada has a target audience very much in mind; more the good folk of Oakland, California, than those of Oakington Bottom, Oxfordshire, for example.It’s a film that wears its social and political agenda very much on its sleeve; every white person in it is either a racist, an idiot or a hothead, and sometimes all three at once. Of course, there have been infinitely more films that reduce black people to ciphers, but that doesn’t make the caricaturing any less overt.Still, there’s an appealing originality and energy to Blindspotting, thanks mostly to the strong performances of its leads, Daveed Diggs and Rafael Casal, who also wrote the screenplay.Diggs plays Collin, a young black man who as the film begins is about to embark on a year’s probation after serving a prison term. Casal is his white best friend, Miles, who rather resents the colour of his own skin.When Collin witnesses a white police officer shooting a black guy in the back, it seems as though the film will have a single storyline. Instead, it becomes a slice-of-life account of the last few days of Collin’s probationary period, and lurches deliberately in tone. One minute it’s a hard-hitting social drama, the next it’s playing for laughs.There’s even an edge-of-the-seat thriller dimension, with Collin often using rap to express himself. Diggs, who won a Tony award for his performance in the smash-hit rap musical Hamilton, unsurprisingly carries this off with huge aplomb.  ",Celebrities
"The Wife (15)Verdict: Glenn Close on stupendous formBlack ‘47 (15)Verdict: Flawed but powerfulWinston Churchill once said that his greatest achievement was to persuade his wife, Clementine, to marry him.I’ve always thought that Churchill can be excused almost anything, so I’ll acquit him from the generalisation that men who say that about themselves are usually engaging in rather icky false humility.American novelist Joe Castleman (Jonathan Pryce) is just such a man.‘The love of my life … without this woman I am nothing,’ he declares, of his wife Joan (Glenn Close), when his friends and relatives gather to toast the announcement of his Nobel Prize for Literature. He goes on to echo the Churchill line, and everyone smiles dutifully, recognising it for what it is, a great man generously tossing his loyal spouse a platitude.But this film, adapted by Jane Anderson from a 2003 Meg Wolitzer novel, explores the extent to which Joe, whether knowingly or not, was speaking the truth. Maybe, without the support and sacrifices of his wife, he would have been nothing. Or at any rate a much lesser something.This is one of those films, rather like Andrew Haigh’s 45 Years (2015) in which Tom Courtenay and Charlotte Rampling played the long-married couple, which holds up a mirror to all those of us with marriages of, let’s say, 25 years or more. It can sometimes be a little unsettling what you see.The story, set mostly in 1992, moves from Connecticut to Stockholm, where Joe is to receive his Nobel Prize from the King of Sweden. But there are quite a few flashbacks, too.Some whisk us all the way back to 1958 when Joe and Joan first met. He was her narcissistic but charismatic creative writing professor, married with children. She was his pretty star pupil, who would sometimes babysit.By the Sixties, which we also see in flashback, Joan (nicely played by Close’s daughter, Annie Starke) has become his second wife and is already allowing her writing career to be subsumed by his, on the basis that a talkative, male, Jewish novelist in the mould of Philip Roth or Saul Bellow is likely to be much more marketable than a self-effacing woman.These occasional voyages back in time (with Harry Lloyd as the young Joe) are helpful in a narrative sense, but also count as unwelcome distractions from the dynamic between the older Joe and Joan, or more accurately between Pryce and Close.He overacts by about 10 per cent, but then it’s a role that calls for a big performance, and besides, Pryce over-doing it is more watchable than many actors getting it spot-on.Close, though, is absolutely mesmerising. In a way, she plays two characters simultaneously. One is Mrs Joseph Castleman, the wife of the title, who is used to being sidelined, belittled, patronised, and watching with a beatific smile while the world hauls her husband onto a pedestal. The other is Joan, quietly racked with resentment at the way he lives his life, at his serial infidelities, at his pomposity, at his self-absorption.They are accompanied to Stockholm by their son, David (Max Irons), who has writing ambitions of his own but has never received the encouragement of his self-obsessed and potentially jealous father, who seems more concerned with whether David smokes or not.Also on the plane is a journalist, Nathaniel Bone (Christian Slater), who is intent on writing Joe’s unauthorised biography. At first he seems like a creep, a borderline stalker. Our instinct as the audience is to want to protect Joan, and even Joe, from Bone’s sly insinuations about their marriage.‘Please don’t paint me as a victim, I am much more interesting than that,’ Joan tells him. But gradually we see that maybe he’s right, maybe there is more to their relationship than meets the eye.All the simmering emotions reach boiling point in Stockholm, where Joe, whose libido is in better shape than his heart, flirts outrageously with the attractive young photographer assigned to follow him.Then comes the ceremony, where he is anointed as a ‘master of words, a master at portraying the human condition in all its complexities’. The irony is that he barely recognises his own condition.The Wife is a deeply intelligent film about power, love and delusion in a long-term relationship, and Swedish director Bjorn Runge keeps it moving forward very adeptly, but the story has a theatricality about it that doesn’t always translate successfully to the silver screen. I imagine it would work better on stage.That said, the camera enables Close, who can express so much with her eyes alone, to give one of the performances of her already-glittering career. She has had six Academy Award nominations but has yet to win. Could this be seventh time lucky?The terrible Irish potato famine of the 1840s is not just the tragic backdrop to Black ’47, a story of cruelty and revenge, but facilitates it, rather as the U.S. Civil War does in countless Westerns.The title refers to the colour of the benighted land and to the worst year of the famine, 1847, by the end of which one in four of the population was either ‘dead or fled’.Our muscular hero, Feeney (James Frecheville), is a soldier from Connemara who returns home from serving with the British Army in Afghanistan to find that the emerald isle he left is now blackened with blight and the charred ruins of torched cottages.The villains of the piece are the British, and Lance Daly’s film — some of which is scripted in Gaelic — allows none of them even the smallest redeeming feature.A little like Jennifer Kent’s forthcoming film The Nightingale, which is set in Australia around the same time, the Brits are a one-dimensional bunch of tyrants, bullies, sadists and racists, summed up by Jim Broadbent’s aristocratic landowner, who sneers that ‘there are those who look forward to the day when a Celtic Irishman is as rare in Ireland as a Red Indian in Manhattan’.In his long absence, Feeney’s mother has died of starvation and his brother has been hanged. Soon, The Great Hunger will also claim his sister and her children, while another brother, or possibly a nephew (it’s not entirely clear), will be shot for resisting the nasty bailiffs. So Feeney embarks on a deadly mission of vengeance, slaughtering everyone he holds responsible in a variety of ingeniously twisted ways.Once the British realise who they’re dealing with, they engage a former Army colleague of Feeney’s, played by Hugo Weaving, to hunt him down. Completing the posse are a floppy-haired officer (Freddie Fox), a local conscript (Barry Keoghan), and a sly tracker (Stephen Rea).Really, this film is a classic revenge Western in all but its setting, reminiscent of True Grit or The Outlaw Josey Wales, but with undertones of Ken Loach’s The Wind That Shakes The Barley.Some slightly dodgy painted scenery suggests that either there wasn’t much of a budget, or someone actually chose to evoke the landscape in an arty, picture-book way.Whichever it was, it’s distracting. But if you can overlook that, and the way in which the peasantry are all tragically noble and their oppressors all mercilessly cruel, then this is a powerful and poignant film.There haven’t been many, if any, features about the Irish potato famine. It was smart to do it as a revenge Western. ",Celebrities
"King Of Theives (15) You'll feel shortchanged Crazy Rich Asians (12A) Verdict: Mostly vacuous Almost 50 years have passed since Michael Caine led a band of virile young criminals over the Alps to Turin in The Italian Job. Now here he is, at the other end of his career, leading a superannuated gang on another audacious heist, in what is effectively The Octogenarian Job.Of course, it's not Caine masterminding the robbery, but the elderly character he plays, Brian Reader, in the true story of the 2015 raid on the Hatton Garden Safe Deposit Company.Director James Marsh doesn't care too much about the distinction, however, so nor should we. He even gives us a fleeting but wonderful montage of shots of Caine and his co-stars, including Tom Courtenay, Jim Broadbent and Michael Gambon, lifted from films they made back when they were sowing their wild oats, rather than eating them to keep themselves regular.Marsh's one great asset, in presenting a story that has already inspired a couple of forgettable feature films, is his cast.With Ray Winstone and Paul Whitehouse from the slightly less liver-spotted department, it is the cast pretty much all of us would have chosen if the job had been ours.Seeing them bouncing off each other as arthritic scoundrels made me sad that Bob Hoskins is no longer around to join them, as he would have done, had he still been alive, practically by royal decree.The film begins with Reader, a career criminal, enjoying a nostalgic night out on the town with his dying wife (Francesca Annis).But soon she is brown bread, as none of his old Cockney muckers have the insensitivity to say.He assured her that he would spend his twilight years going straight, yet the promise barely even survives to the funeral.There, instead of misty-eyed recollections of his fragrant missus, he is discussing the robberies that he and his pals never got round to carrying out.With the encouragement of his nerdy, nervous protege Basil (Charlie Cox), he starts plotting a spectacular swansong. 'Things like this give me purpose,' he says. We are expected, I think, to cheer him on. After all, he's Sir Michael Caine.This is the self-inflicted problem Marsh has with his troupe of much-loved, venerable actors, and it's one that he and screenwriter Joe Penhall acknowledge by reminding us half-heartedly, every now and then, that this crew of doddery villains are still actually meant to be pretty villainous.Caine duly unveils that toothy snarl of his from time to time, but really, King Of Thieves belongs with all those other heist movies that manipulate us into rooting for the baddies, bestowing on them a kind of murky glamour. As so often, the crime-fighters aren't nearly as interesting. Indeed, the cops here, not one of them represented by a national treasure, go about their business in near-silence.There are a couple of other dramatic difficulties that the film, in trying to reflect accurately what happened (to the extent that much of the script follows actual police transcripts, taken from bugging devices planted after the robbery), does not entirely solve.One is that Reader, the most compelling character played by the most famous actor, distances himself from the heist after a barney between himself and another robber, Terry Perkins (Broadbent). Another is that breaking into the deposit-box vault takes place over an Easter weekend, dragging on for so long that in the middle of the job they actually pack up and go home for the night.So there are no thrills in the style of Ocean's 8. Instead, this is Ocean's 80-odd, and Marsh tries hard to make a virtue of it. Kenny Collins (Courtenay) has a habit of dozing off, which is unfortunate in a lookout-man.Perkins has diabetes and needs an injection in his buttock halfway through the robbery. And the fence, Billy the Fish (Gambon), has prostate trouble. So one minute, King Of Thieves is playing for laughs; yet the next, it's rebuking us for laughing.The result is a curious mish-mash of a film, unevenly scripted and nowhere near as sure-footed as Marsh's acclaimed 2014 feature, The Theory Of Everything.There's a terrific soundtrack, containing a few clever, near-subliminal refrains from the themes of much-loved old detective shows such as The Professionals and The Sweeney.And it's nice to see a Bafta-lifetime-achievement-award, or a dinner-at-The-Ivy (or whatever might be the collective noun) of great old British actors still hitting their marks. But, aptly, I left feeling short-changed.n I WAS similarly disappointed by Crazy Rich Asians, a romantic comedy with an all-Asian cast that has been wildly successful in the U.S., attracting near-rapturous reviews.Though undeniably sweet and funny in parts, I thought it mostly vacuous, lazily- plotted nonsense.To clear up a couple of possible misconceptions about the title, these are not Asians from the Indian subcontinent, which I think is what most British audiences might expect, but from China and Singapore. And 'crazy' doesn't mean that they're bonkers. Crazy-rich is an American compound adjective. They're loaded.The film opens in 1995 in a swanky London hotel, where the snotty manager turfs out a Singaporean family, telling them to find rooms in Chinatown. You don't believe in it for a micro-second, but it sets the tone for the many implausibil-ities to come.We leap forward to the present day. Rachel Chu (Constance Wu) is a beautiful economics professor (an oxymoron, surely), raised in New York by a poor, single mother.She discovers that her suave boyfriend Nick Young (nicely, if improbably, played by BBC Travel Show presenter Henry Golding) is not the ordinary, slightly impecunious cove that, despite his expensive wardrobe and Eton-polished vowels, she very unperceptively took him to be.Nope, he's the heir to a multi-billion dollar empire, run by the same family that was belittled in the London hotel, a family so rich that it owns most of South-East Asia.In Singapore for a family wedding, she meets all his relatives and childhood friends, some of whom — notably his uptight mother Eleanor (Michelle Yeoh) — are determined not to let Nick marry 'beneath' him.That's basically all the plot entails. But to eke out the two-hour running time, it is lavishly gilded with scenes of such conspicuous consumption that you can hardly believe you're not back in the Eighties.There are some good lines, some amusing scenes and some lipsmacking food shots, as well as a wildly over-the-top turn by the rapper Awkwafina as Rachel's college friend. But a romcom classic?Let me be the first to suggest that the Chinese Emperor is wearing no clothes.",Celebrities
"Night School (12A)Verdict: Witless comedyKevin Hart produced, co-wrote and stars in this dispiritingly clunky, witless comedy, so he takes most of the blame.He plays Teddy Walker, an Atlanta high school drop-out who loses his job as a barbecue-grill salesman when the shop explodes following his elaborate proposal to his improbably perfect, high-flying girlfriend.To get a job decent enough to impress her, not to mention his bullying father, he has to enrol in night classes held at the very school at which he flunked his exams years earlier.Inevitably, the boy who loathed him most back then is now the principal.With Tiffany Haddish playing the unorthodox night school teacher (her techniques involve a boxing ring), and a classful of stereotypes (the dimwit, the rebel, the housewife trying to better herself, the Mexican immigrant), there ensues a series of mirthless episodes that might remind those of you who remember Seventies telly, of Mind Your Language — a sitcom we’d all rather forget.On the whole it’s desperately poor fare, which in the audience I was in, yielded precisely three half-laughs (I counted).I confess to smiling when Teddy gets a job in an evangelical fast-food outlet called Christian Chicken, but that was about it. For all his goofy charisma, Hart, who styles himself as a kind of African-American Jerry Lewis, cannot save this feeble comedy from itself.",Celebrities
"The 75th Venice Film Festival has begun very promisingly. Wednesday’s opening movie, reviewed in these pages yesterday, was the engrossing and moving First Man, about the life of Neil Armstrong leading up to his momentous 1969 moonwalk.The pick of yesterday’s festival films offered more cinematic pleasure. The Favourite, directed by Yorgos Lanthimos and set in the debauched, corrupt court of England’s Queen Anne (Olivia Colman) while the War of the Spanish Succession rages on the continent, is an absolute hoot.Colman, of course, is soon to play Queen Elizabeth II in the Netflix series The Crown. It’s safe to say that this regal outing doesn’t give us much of a preview. Her Anne bears more resemblance to another Elizabeth: Miranda Richardson’s Queenie in the TV sitcom Blackadder. She is childlike, tantrum-prone, full of self-pity, and in need of constant nursemaiding at the hands of her lifelong but infinitely more glamorous friend, Sarah Churchill, Duchess of Marlborough (Rachel Weisz).At the start of the film, Anne shows Sarah a model of the fabulous palace she is giving her and her husband, the Duke (Mark Gatiss), to mark his famous triumph at the Battle of Blenheim.But that victory didn’t actually end the war, Sarah points out. ‘Oh, I did not know that,’ replies the Queen, who is not only dim, but also crippled with gout, overweight and given to eating until she throws up. Her courtiers might flatter her absurdly, but the camera does not.Colman, hobbling along the corridors of her palace (actually Hatfield House, in Hertfordshire), gives an uproarious and decidedly un-vain performance.Weisz is similarly excellent, playing Sarah at times almost like the thigh-slapping principal boy in a panto. So is Emma Stone as Abigail Hill, an ambitious, conniving servant who inveigles her way first into Sarah’s affections, then into the Queen’s.Abigail comes from an aristocratic family, indeed her father was Sarah’s cousin. But he was also irredeemably feckless. ‘When I was 15 my father lost me in a card game,’ says Abigail, matter-of-factly. Sarah condescendingly tosses her a job as a kitchen maid.However, Abigail has not arrived at court to scrub floors. When she uses her foraging skills to make a herbal treatment for the Queen’s gout, she begins her inexorable rise in the court hierarchy.Then she discovers that there is a very secret dimension to the relationship between Sarah and the Queen, who even have pet names, Mrs Freeman and Mrs Morley, for each other.How can she use this knowledge to her advantage?By this stage it has occurred to the audience that the film’s title might not refer to Weisz’s calculating Duchess, but to Stone’s social-climbing servant. Yet Sarah will still take some supplanting as the power behind the throne.She is politically astute, a vital ally to the Prime Minister (James Smith), as he seeks to raise taxes to subsidise the war effort, which is led in the field by her heroic husband.Her sworn enemy is the Leader of the Opposition, Robert Harley (Nicholas Hoult), who hopes to outflank Sarah by recruiting Abigail as a spy.Handily, his protégé Colonel Masham (Joe Alwyn) fancies Abigail rotten. ‘Have you come to seduce me or rape me?’ she asks, as he slips into her room one night.‘I am a gentleman,’ Masham replies, indignantly.‘So, rape then,’ she mutters.All this bawdiness and chicanery would be entertaining enough, but it is given a raucous spin by Lanthimos, working from a very funny original screenplay by Deborah Davis and Tony McNamara.He has a ball, in one marvellous scene quite literally, with the baroque fashions of the time — all those powdered wigs, rouged cheeks and fake beauty spots. The Greek director has worked with Colman and Weisz before, on 2015’s The Lobster. I didn’t blow rhapsodies at that film, as many did, and preferred his 2017 picture The Killing Of A Sacred Deer. But this is his best yet; Lanthimos has an eye for the grotesque that suits overt comedy even better than it does quirky horror.He is aided by a whimsical chamber-music score, and by Robbie Ryan’s clever cinematography, which sometimes uses a fish-eye lens to wreak further distortion on the film’s twisted characters.The basic framework of the story is entirely factual. Abigail Masham, as she became, really did topple Sarah Churchill as the Queen’s favourite, if not perhaps as ruthlessly as she does here.But cheekily and hilariously, Lanthimos also sprinkles the story with anachronisms, including a dance that is more Saturday Night Fever than House of Stuart and had the Venice audience guffawing loudly.There is poignancy, though, beneath all the fun. Abigail finds a way to Anne’s heart partly by playing with the 17 rabbits the Queen keeps in her bedchamber as substitutes for the 17 children she has lost.Yet a later act of callous cruelty reminds us that Abigail does not have her sovereign’s best interests at heart, in fact barely has a heart at all.The Duchess, for all her machinations, genuinely does. At its own heart, this is a film about friendship. The Favourite opens in the UK on January 1 next year.Think of the Muppets or Sesame Street with all the wit and joy extracted, replaced with a barrage of expletives and crass vulgarity that might have been crafted by over-excited fifth-formers, and you have The Happytime Murders, out this week.The premise, and indeed the first few minutes, are promising enough. Director Brian Henson (son of Muppets creator Jim Henson) and screenwriter Todd Berger have created a film noir set in Los Angeles where the second-class citizens are not poor blacks or Hispanics, but Muppet-style puppets.Taking a classic film genre and giving it a sharp twist is nothing new — Alan Parker did it more than 40 years ago with Bugsy Malone. But done well, it can still be fun.It took my wife and me about five minutes to realise that The Happytime Murders is not fun. We watched it at the Odeon in Hereford on Monday evening, where even the cackles of a quartet of adolescent boys, for whom the highlight was a scene in which two puppets have rampant and extremely messy sex, fairly quickly petered out. The film’s hero is Phil Phillips (voiced by Bill Barretta), a Sam Spade-type private investigator who was the LAPD’s first non-human detective until he was kicked off the force, stigmatised by the trumped-up allegation that he would not shoot his fellow puppets. Following a shotgun massacre in a porn shop, Phil realises that the targets of a warped vendetta are members of The Happytime Gang, puppet TV stars.Also investigating the murders is his former LAPD partner, the racist (ie anti-puppet) Connie, played by Melissa McCarthy. They loathe each other but are forced to work together, as they try to solve the murders and protect the rest of the cast, including its only human member, Phil’s ex-lover Jenny (Elizabeth Banks).Maya Rudolph also pops up, as Phil’s devoted secretary, but don’t be misled by the presence of some fine comic actresses; they are wasted in the service of a series of unfunny set-pieces and feeble running gags, including one, in which McCarthy’s character is mistaken for a man, that has the musty whiff of sheer desperation. This sumptuous Polish-language picture, also out now, deservedly landed Pawel Pawlikowski, born in Warsaw but raised in the UK, the Best Director award at Cannes.Shot in black and white, and lasting only 84 minutes, it is the exquisitely-told tale of a decades-long love affair that defies boundaries of class and age, as well as post-war tensions between East and West.It opens in 1949, in rural and already staunchly Communist Poland. Wiktor (Tomasz Kot) is a middle-aged musical director auditioning young men and women for a troupe of singers and dancers intended to showcase the country’s folk music traditions. Among those auditioning is the feisty, pretty, altogether beguiling Zula (Joanna Kulig).Wiktor is instantly smitten. Soon they are lovers, and he helps to turn her into a celebrated solo artist. The story follows them, via East Berlin, Paris and Poland again, with the misery and paranoia of state Communism as the backdrop, up to 1964.If Pawlikowski had really indulged himself, Cold War could have easily run to a Dr Zhivago-like three hours plus. By telling his absorbing story in less than an hour and a half, he shows what a consummate film-maker he is. ",Celebrities
"BlacKkKlansman (15)Verdict: Turgid anti-Trump agitpropBlacKkKlansman, the new Spike Lee film, is ostensibly about the efforts of an undercover African-American Colorado police officer to infiltrate the Ku Klux Klan in the late Seventies.In reality, it is a two-hour-and-15-minute attack on Donald Trump and the supposed racism of those who voted for him.It opens with a foul-mouthed tirade by Alec Baldwin, playing a Southern segregationist named Dr Kennebrew Beauregard, and closes with documentary footage of a car being driven into a crowd of black protesters at last year’s far-Right rally in Charlottesville, Virginia.In between, we’re treated to scenes from D.W. Griffith’s notoriously bigoted 1915 film The Birth Of A Nation and presented with a heart-rending tale by elderly Jerome Turner (Harry Belafonte, no less) about a lynching he saw as a boy.The message is clear — America is a racist country and always has been, African-Americans are forever doomed to be an oppressed minority and the current President is a white supremacist.This hectoring tone is a pity because Lee has produced some decent films such as Inside Man and Summer Of Sam. In BlacKkKlansman, there’s a damning portrait of Klan Grand Wizard David Duke (Topher Grace), a deeply unpleasant man depicted as trying to win power via an electoral strategy of whipping up anger over immigration.When the central character expresses scepticism that someone repugnant like Duke could reach the White House, his boss says: ‘Why don’t you wake up?’The comparison with Trump is hardly subtle, but is it fair?Indeed, there is so much to question in this message that it’s hard to know where to start. Was Trump’s victory merely a kind of ‘whitelash’ against the presidency of Barack Obama?Research shows Trump got a smaller share of the white vote than 2012 Republican nominee Mitt Romney and won because more Hispanics and Asians voted for him than Romney. He also got more black votes than any Republican since 2004. It is also wrong to claim African-Americans will always be second-class citizens. A recent report for the American Enterprise Institute, a conservative think-tank, suggests a majority of black men (57 per cent) now belong to the middle or upper-middle-class, up from 38 per cent in 1960.During the same period, it reported that the number of black men living in poverty fell from 41 per cent to 18 per cent. America is still the land of opportunity.But it isn’t just the relentless, one-dimensional identity politics of BlacKkKlansman that is such a borefest. Tragically, this is a missed opportunity. By trying to stir audiences into righteous indignation about race, Spike Lee fails to include elements that might make his film entertaining — such as plot, character development, romance, action and suspense.The title character, Ron Stallworth, is played by John David Washington, son of Denzel, who lacks the charisma and screen presence of his father. That would not matter so much if the writers had fleshed out his character with some nuance and depth, but we’re never told why an incipient black radical, with an abiding hatred of the Klan, has joined the police.That’s an odd omission, given that Lee has so many characters complain that American police officers routinely shoot dead innocent young black men.As with all the other politically correct canards repeated ad infinitum, that’s utter nonsense. A 2016 study by an African- American Harvard professor found black men are no more likely to be the victims of officer-involved shootings than whites.BlacKkKlansman is based on a true story. Stallworth contacts local Klansmen by phone and gets white officer Flip Zimmerman (Adam Driver) to impersonate him in meetings. This provides Lee with chances to inject excitement by having Klansmen almost stumble across the truth about Stallworth and Zimmerman. But Lee flunks every opportunity and the film is about as suspenseful as a broken clothes line.Zimmerman, like Stallworth, is a woefully underwritten character. You get no sense of what issues he has to resolve.He’s an assimilated Jew and Stallworth admonishes him for being insufficiently race-conscious. Doesn’t he realise they’re united in a struggle against a common enemy?But this plot strand doesn’t go anywhere. Has Zimmerman’s exposure to the Klan radicalised him and turned him into a militant, unassimilated Jew? We’re simply not told.Needless to say, the film has been showered with praise by right-on commentators. No doubt it will end up festooned with awards, including an Oscar for Best Picture.Normally that wouldn’t matter and BlacKkKlansman could be treated as yet another Hollywood attack on Trump. But from someone as respected as Spike Lee, his provocative treatment of race issues risks stirring up unrest.In one particularly egregious scene, we’re shown Black Panthers founder Stokely Carmichael aka Kwame Ture (Corey Hawkins) speaking to an enraptured black audience.He claims that white Americans are planning to kill them and advises them to arm themselves in preparation for the coming race war.Watching this in dismay, I was reminded of the words of the great Dr Martin Luther King: ‘Fiery, demagogic oratory in the black ghettos . . . can reap nothing but grief.’Amen, Doctor King.But what a fab soundtrack . . .Reviewed by Adrian ThrillsWith the rap, soul and salsa of 1989’s Do The Right Thing an early example, music is often central to Spike Lee’s films — and jazz trumpeter Terence Blanchard’s superb score for BlacKkKlansman looks a good bet for Oscar recognition next year.Available digitally, it combines powerful orchestral themes, languid interludes and funkier pieces fuelled by wah-wah guitar.Memorable songs from the Seventies also feature in the film itself, including classic southern soul number Too Late To Turn Back Now, the Edwin Hawkins Singers’ gospel arrangement of Oh Happy Day, Looking Glass’s pop hit Brandy and Greg Lake’s poignant ballad Lucky Man.The ELP bassist and vocalist passed away in 2016, but it is another singer who died that year who takes pride of place during the film’s closing credits.Prince’s Mary Don’t You Weep, sung alone at the piano and recorded on cassette in 1983, has all the improvisational panache he displayed onstage. The Children Act (12A)Verdict: More cake, Your Honour?The Children Act starts off quite promisingly. A senior judge, Fiona Maye (Emma Thompson), has to decide whether to grant a hospital’s application to start treating a 17-year-old boy for leukaemia.The boy, Adam Henry (Fionn Whitehead) is a Jehovah’s Witness and objects to the treatment because it involves a blood transfusion, which is verboten by his religion.If Adam was 18, the hospital would have to respect his decision, but because he’s a minor it’s not clear cut.This is a serious moral dilemma and, to help make up her mind, Maye decides to visit Adam in hospital.So far, so intriguing, but then something odd happens. She spots a guitar at the bottom of his bed and passes it to him.Though we’re asked to believe Adam’s only been playing for eight weeks, he produces a perfect rendition of the folk song Down By The Salley Gardens — at which point Maye, an amateur musician, starts singing the lyrics written by the poet William Butler Yeats.It’s supposed to be a heart- stopping moment, but I have to confess, I burst out laughing.There was something so utterly preposterous about it — like one of those unlikely double acts that turn up on Britain’s Got Talent. I half-expected Amanda Holden to pop out of a cupboard, her face streaming with tears, saying: ‘A hundred per cent yes!’The problem with The Children Act, directed by Richard Eyre and adapted by Ian McEwan from his 2014 novel, is that everything is so monotonously tasteful. Maye lives in a wooden-floored townhouse, with not a stick of Ikea furniture in sight, poring over her legal papers while classical music wafts in from the sitting room.At one point, her English professor, husband Jack (Stanley Tucci) tells her he’s thinking of having an affair. But instead of the expected fireworks, his wife just grimaces and quietly leaves the room.The judge treats all the lower-class characters with an indifference bordering on contempt, from her long-suffering clerk to the driver who hefts her bag in and out of her car. I couldn’t help being reminded of Emma Thompson’s famously snobbish response when asked whether she intended to vote Remain on the eve of the EU referendum.‘Of course,’ she replied, before comparing Britain to ‘a tiny little cloud-bolted, rainy corner of sort-of Europe, a cake-filled misery-laden grey old island’.The Children Act could do with a healthy dose of vulgarity, including cakes and ale.Thompson occupies a ‘misery-laden grey old island’ all right, which is a good description of this film’s mood, but only because she’s chosen to star in it.The King (15) Verdict: Return to senderThe King is a workmanlike documentary about the late Elvis Presley, but struggles to find anything new to say about the much-raked-over rock ’n’ roll legend.There’s lots of switching back and forth between the past and the present and, at times, the filmmakers seem to be saying that the Memphis heartthrob embodied a rags-to-riches American Dream which is now dead. But at other moments they want us to embrace Elvis as a symbol of everything that is great and rotten about America, as if nothing’s really changed. How confusing. ",Celebrities
